tb.vcd
$date
	Sat Apr 12 18:15:50 2025
$end
$version
	Icarus Verilog
$end
$timescale
	1s
$end
$scope module tb $end
$var wire 1 ! x3 $end
$var wire 1 " x27 $end
$var wire 1 # x26 $end
$var reg 1 $ clk $end
$var reg 1 % rst $end
$var integer 32 & r [31:0] $end
$scope module open_risc_v_soc_inst $end
$var wire 1 $ clk $end
$var wire 1 % rst $end
$var wire 32 ' rom_inst_o [31:0] $end
$var wire 32 ( open_risc_v_inst_addr_o [31:0] $end
$scope module open_risc_v_inst $end
$var wire 1 $ clk $end
$var wire 1 % rst $end
$var wire 32 ) regs_rs2_id_rdata_o [31:0] $end
$var wire 32 * regs_rs1_id_rdata_o [31:0] $end
$var wire 32 + pc_reg_pc_o [31:0] $end
$var wire 32 , inst_i [31:0] $end
$var wire 32 - inst_addr_o [31:0] $end
$var wire 32 . if_inst_o [31:0] $end
$var wire 32 / if_inst_addr_o [31:0] $end
$var wire 32 0 if_id_inst_o [31:0] $end
$var wire 32 1 if_id_inst_addr_o [31:0] $end
$var wire 5 2 id_rs2_addr_o [4:0] $end
$var wire 5 3 id_rs1_addr_o [4:0] $end
$var wire 1 4 id_reg_wen_o $end
$var wire 5 5 id_rd_addr_o [4:0] $end
$var wire 32 6 id_op2_o [31:0] $end
$var wire 32 7 id_op1_o [31:0] $end
$var wire 32 8 id_inst_o [31:0] $end
$var wire 32 9 id_inst_addr_o [31:0] $end
$var wire 1 : id_ex_reg_wen_o $end
$var wire 5 ; id_ex_rd_addr_o [4:0] $end
$var wire 32 < id_ex_op2_o [31:0] $end
$var wire 32 = id_ex_op1_o [31:0] $end
$var wire 32 > id_ex_inst_o [31:0] $end
$var wire 32 ? id_ex_inst_addr_o [31:0] $end
$var wire 1 @ ex_reg_wen_o $end
$var wire 32 A ex_rd_data_o [31:0] $end
$var wire 5 B ex_rd_addr_o [4:0] $end
$var wire 1 C ex_jump_en_o $end
$var wire 32 D ex_jump_addr_o [31:0] $end
$var wire 1 E ex_hold_flag_o $end
$var wire 1 F ctrl_jump_en_o $end
$var wire 32 G ctrl_jump_addr_o [31:0] $end
$var wire 1 H ctrl_hold_flag_o $end
$scope module ctrl_inst $end
$var wire 1 C jump_en_i $end
$var wire 32 I jump_addr_i [31:0] $end
$var wire 1 E hold_flag_ex_i $end
$var reg 1 H hold_flag_o $end
$var reg 32 J jump_addr_o [31:0] $end
$var reg 1 F jump_en_o $end
$upscope $end
$scope module ex_inst $end
$var wire 5 K rs2 [4:0] $end
$var wire 5 L rs1 [4:0] $end
$var wire 1 : reg_wen_i $end
$var wire 5 M rd_addr_i [4:0] $end
$var wire 5 N rd [4:0] $end
$var wire 7 O opcode [6:0] $end
$var wire 1 P op_i_equal_op2_i $end
$var wire 32 Q op2_i [31:0] $end
$var wire 32 R op1_i [31:0] $end
$var wire 32 S jump_imm [31:0] $end
$var wire 32 T inst_i [31:0] $end
$var wire 32 U inst_addr_i [31:0] $end
$var wire 12 V imm [11:0] $end
$var wire 7 W func7 [6:0] $end
$var wire 3 X func3 [2:0] $end
$var reg 1 E hold_flag_o $end
$var reg 32 Y jump_addr_o [31:0] $end
$var reg 1 C jump_en_o $end
$var reg 5 Z rd_addr_o [4:0] $end
$var reg 32 [ rd_data_o [31:0] $end
$var reg 1 @ rd_wen_o $end
$upscope $end
$scope module id_ex_inst $end
$var wire 1 $ clk $end
$var wire 1 H hold_flag_i $end
$var wire 1 % rst $end
$var wire 1 : reg_wen_o $end
$var wire 1 4 reg_wen_i $end
$var wire 5 \ rd_addr_o [4:0] $end
$var wire 5 ] rd_addr_i [4:0] $end
$var wire 32 ^ op2_o [31:0] $end
$var wire 32 _ op2_i [31:0] $end
$var wire 32 ` op1_o [31:0] $end
$var wire 32 a op1_i [31:0] $end
$var wire 32 b inst_o [31:0] $end
$var wire 32 c inst_i [31:0] $end
$var wire 32 d inst_addr_o [31:0] $end
$var wire 32 e inst_addr_i [31:0] $end
$scope module dff1 $end
$var wire 1 $ clk $end
$var wire 1 H hold_flag_i $end
$var wire 1 % rst $end
$var wire 32 f set_data [31:0] $end
$var wire 32 g data_i [31:0] $end
$var parameter 32 h DW $end
$var reg 32 i data_o [31:0] $end
$upscope $end
$scope module dff2 $end
$var wire 1 $ clk $end
$var wire 1 H hold_flag_i $end
$var wire 1 % rst $end
$var wire 32 j set_data [31:0] $end
$var wire 32 k data_i [31:0] $end
$var parameter 32 l DW $end
$var reg 32 m data_o [31:0] $end
$upscope $end
$scope module dff3 $end
$var wire 1 $ clk $end
$var wire 1 H hold_flag_i $end
$var wire 1 % rst $end
$var wire 32 n set_data [31:0] $end
$var wire 32 o data_i [31:0] $end
$var parameter 32 p DW $end
$var reg 32 q data_o [31:0] $end
$upscope $end
$scope module dff4 $end
$var wire 1 $ clk $end
$var wire 1 H hold_flag_i $end
$var wire 1 % rst $end
$var wire 32 r set_data [31:0] $end
$var wire 32 s data_i [31:0] $end
$var parameter 32 t DW $end
$var reg 32 u data_o [31:0] $end
$upscope $end
$scope module dff5 $end
$var wire 1 $ clk $end
$var wire 1 H hold_flag_i $end
$var wire 1 % rst $end
$var wire 5 v set_data [4:0] $end
$var wire 5 w data_i [4:0] $end
$var parameter 32 x DW $end
$var reg 5 y data_o [4:0] $end
$upscope $end
$scope module dff6 $end
$var wire 1 $ clk $end
$var wire 1 H hold_flag_i $end
$var wire 1 % rst $end
$var wire 1 z set_data $end
$var wire 1 4 data_i $end
$var parameter 32 { DW $end
$var reg 1 : data_o $end
$upscope $end
$upscope $end
$scope module id_inst $end
$var wire 32 | rs2_data_i [31:0] $end
$var wire 5 } rs2 [4:0] $end
$var wire 32 ~ rs1_data_i [31:0] $end
$var wire 5 !" rs1 [4:0] $end
$var wire 5 "" rd [4:0] $end
$var wire 7 #" opcode [6:0] $end
$var wire 32 $" inst_i [31:0] $end
$var wire 32 %" inst_addr_i [31:0] $end
$var wire 12 &" imm [11:0] $end
$var wire 7 '" func7 [6:0] $end
$var wire 3 (" func3 [2:0] $end
$var reg 32 )" inst_addr_o [31:0] $end
$var reg 32 *" inst_o [31:0] $end
$var reg 32 +" op1_o [31:0] $end
$var reg 32 ," op2_o [31:0] $end
$var reg 5 -" rd_addr_o [4:0] $end
$var reg 1 4 reg_wen $end
$var reg 5 ." rs1_addr_o [4:0] $end
$var reg 5 /" rs2_addr_o [4:0] $end
$upscope $end
$scope module if_id_inst $end
$var wire 1 $ clk $end
$var wire 1 H hold_flag_i $end
$var wire 1 % rst $end
$var wire 32 0" inst_o [31:0] $end
$var wire 32 1" inst_i [31:0] $end
$var wire 32 2" inst_addr_o [31:0] $end
$var wire 32 3" inst_addr_i [31:0] $end
$scope module dff1 $end
$var wire 1 $ clk $end
$var wire 1 H hold_flag_i $end
$var wire 1 % rst $end
$var wire 32 4" set_data [31:0] $end
$var wire 32 5" data_i [31:0] $end
$var parameter 32 6" DW $end
$var reg 32 7" data_o [31:0] $end
$upscope $end
$scope module dff2 $end
$var wire 1 $ clk $end
$var wire 1 H hold_flag_i $end
$var wire 1 % rst $end
$var wire 32 8" set_data [31:0] $end
$var wire 32 9" data_i [31:0] $end
$var parameter 32 :" DW $end
$var reg 32 ;" data_o [31:0] $end
$upscope $end
$upscope $end
$scope module ifetch_inst $end
$var wire 32 <" if2rom_addr_o [31:0] $end
$var wire 32 =" inst_addr_o [31:0] $end
$var wire 32 >" inst_o [31:0] $end
$var wire 32 ?" rom_inst_i [31:0] $end
$var wire 32 @" pc_addr_i [31:0] $end
$upscope $end
$scope module pc_reg_inst $end
$var wire 1 $ clk $end
$var wire 32 A" jump_addr_i [31:0] $end
$var wire 1 F jump_en_i $end
$var wire 1 % rst $end
$var reg 32 B" pc_o [31:0] $end
$upscope $end
$scope module regs_inst $end
$var wire 1 $ clk $end
$var wire 5 C" reg1_raddr_i [4:0] $end
$var wire 5 D" reg2_raddr_i [4:0] $end
$var wire 5 E" reg_waddr_i [4:0] $end
$var wire 32 F" reg_wdata_i [31:0] $end
$var wire 1 @ reg_wen $end
$var wire 1 % rst $end
$var reg 32 G" reg1_rdata_o [31:0] $end
$var reg 32 H" reg2_rdata_o [31:0] $end
$var integer 32 I" i [31:0] $end
$upscope $end
$upscope $end
$scope module rom_inst $end
$var wire 32 J" inst_addr_i [31:0] $end
$var reg 32 K" inst_o [31:0] $end
$upscope $end
$upscope $end
$upscope $end
$enddefinitions $end
$comment Show the parameter values. $end
$dumpall
b100000 :"
b100000 6"
b1 {
b101 x
b100000 t
b100000 p
b100000 l
b100000 h
$end
#0
$dumpvars
b110100010011 K"
b0 J"
b100000 I"
b0 H"
b0 G"
b0 F"
b0 E"
b0 D"
b0 C"
b0 B"
b0 A"
b0 @"
b110100010011 ?"
b110100010011 >"
b0 ="
b0 <"
b0 ;"
b0 9"
b0 8"
b10011 7"
b110100010011 5"
b10011 4"
b0 3"
b0 2"
b110100010011 1"
b10011 0"
b0 /"
b0 ."
b0 -"
b0 ,"
b0 +"
b10011 *"
b0 )"
b0 ("
b0 '"
b0 &"
b0 %"
b10011 $"
b10011 #"
b0 ""
b0 !"
b0 ~
b0 }
b0 |
0z
b0 y
b0 w
b0 v
b0 u
b0 s
b0 r
b0 q
b0 o
b0 n
b0 m
b0 k
b0 j
b10011 i
b10011 g
b10011 f
b0 e
b0 d
b10011 c
b10011 b
b0 a
b0 `
b0 _
b0 ^
b0 ]
b0 \
b0 [
b0 Z
b0 Y
b0 X
b0 W
b0 V
b0 U
b10011 T
b0 S
b0 R
b0 Q
1P
b10011 O
b0 N
b0 M
b0 L
b0 K
b0 J
b0 I
0H
b0 G
0F
0E
b0 D
0C
b0 B
b0 A
0@
b0 ?
b10011 >
b0 =
b0 <
b0 ;
0:
b0 9
b10011 8
b0 7
b0 6
b0 5
14
b0 3
b0 2
b0 1
b10011 0
b0 /
b110100010011 .
b0 -
b110100010011 ,
b0 +
b0 *
b0 )
b0 (
b110100010011 '
bx &
0%
1$
0#
0"
0!
$end
#10
0$
#20
b100000 I"
1$
#30
1%
0$
#40
b11010 5
b11010 ]
b11010 w
b11010 -"
b110110010011 .
b110110010011 1"
b110110010011 5"
b110110010011 >"
b110110010011 '
b110110010011 ,
b110110010011 ?"
b110110010011 K"
b11010 ""
b110100010011 8
b110100010011 c
b110100010011 g
b110100010011 *"
1@
b100 /
b100 3"
b100 9"
b100 ="
b100 (
b100 -
b100 <"
b100 J"
b100 +
b100 @"
b100 B"
b110100010011 0
b110100010011 $"
b110100010011 0"
b110100010011 7"
1:
1$
#50
0$
#60
b11011 5
b11011 ]
b11011 w
b11011 -"
b11010 B
b11010 Z
b11010 E"
b11010 S
b11010 N
b11011 ""
b100 9
b100 e
b100 k
b100 )"
b110110010011 8
b110110010011 c
b110110010011 g
b110110010011 *"
b10010011 .
b10010011 1"
b10010011 5"
b10010011 >"
b10010011 '
b10010011 ,
b10010011 ?"
b10010011 K"
b11010 ;
b11010 M
b11010 \
b11010 y
b110100010011 >
b110100010011 T
b110100010011 b
b110100010011 i
b100 1
b100 %"
b100 2"
b100 ;"
b110110010011 0
b110110010011 $"
b110110010011 0"
b110110010011 7"
b1000 /
b1000 3"
b1000 9"
b1000 ="
b1000 (
b1000 -
b1000 <"
b1000 J"
b1000 +
b1000 @"
b1000 B"
1$
#70
0$
#80
b1 5
b1 ]
b1 w
b1 -"
b1000111100010011 .
b1000111100010011 1"
b1000111100010011 5"
b1000111100010011 >"
b1000111100010011 '
b1000111100010011 ,
b1000111100010011 ?"
b1000111100010011 K"
b1 ""
b1000 9
b1000 e
b1000 k
b1000 )"
b10010011 8
b10010011 c
b10010011 g
b10010011 *"
b100000011010 S
b11011 N
b11011 B
b11011 Z
b11011 E"
b1100 /
b1100 3"
b1100 9"
b1100 ="
b1100 (
b1100 -
b1100 <"
b1100 J"
b1100 +
b1100 @"
b1100 B"
b10010011 0
b10010011 $"
b10010011 0"
b10010011 7"
b1000 1
b1000 %"
b1000 2"
b1000 ;"
b110110010011 >
b110110010011 T
b110110010011 b
b110110010011 i
b100 ?
b100 U
b100 d
b100 m
b11011 ;
b11011 M
b11011 \
b11011 y
1$
#90
0$
#100
b11110 5
b11110 ]
b11110 w
b11110 -"
b1 3
b1 ."
b1 C"
b1 B
b1 Z
b1 E"
b100000000000 S
b1 N
b1 !"
b11110 ""
b1100 9
b1100 e
b1100 k
b1100 )"
b1000111100010011 8
b1000111100010011 c
b1000111100010011 g
b1000111100010011 *"
b111010010011 .
b111010010011 1"
b111010010011 5"
b111010010011 >"
b111010010011 '
b111010010011 ,
b111010010011 ?"
b111010010011 K"
b1 ;
b1 M
b1 \
b1 y
b1000 ?
b1000 U
b1000 d
b1000 m
b10010011 >
b10010011 T
b10010011 b
b10010011 i
b1100 1
b1100 %"
b1100 2"
b1100 ;"
b1000111100010011 0
b1000111100010011 $"
b1000111100010011 0"
b1000111100010011 7"
b10000 /
b10000 3"
b10000 9"
b10000 ="
b10000 (
b10000 -
b10000 <"
b10000 J"
b10000 +
b10000 @"
b10000 B"
1$
#110
0$
#120
b11101 5
b11101 ]
b11101 w
b11101 -"
b0 3
b0 ."
b0 C"
b1000000000000110010011 .
b1000000000000110010011 1"
b1000000000000110010011 5"
b1000000000000110010011 >"
b1000000000000110010011 '
b1000000000000110010011 ,
b1000000000000110010011 ?"
b1000000000000110010011 K"
b0 !"
b11101 ""
b10000 9
b10000 e
b10000 k
b10000 )"
b111010010011 8
b111010010011 c
b111010010011 g
b111010010011 *"
b11110 S
b1 L
b11110 N
b11110 B
b11110 Z
b11110 E"
b10100 /
b10100 3"
b10100 9"
b10100 ="
b10100 (
b10100 -
b10100 <"
b10100 J"
b10100 +
b10100 @"
b10100 B"
b111010010011 0
b111010010011 $"
b111010010011 0"
b111010010011 7"
b10000 1
b10000 %"
b10000 2"
b10000 ;"
b1000111100010011 >
b1000111100010011 T
b1000111100010011 b
b1000111100010011 i
b1100 ?
b1100 U
b1100 d
b1100 m
b11110 ;
b11110 M
b11110 \
b11110 y
1$
#130
0$
#140
b11 5
b11 ]
b11 w
b11 -"
b10 6
b10 _
b10 s
b10 ,"
b11101 B
b11101 Z
b11101 E"
b100000011100 S
b0 L
b11101 N
b10 &"
b10 }
b11 ""
b10100 9
b10100 e
b10100 k
b10100 )"
b1000000000000110010011 8
b1000000000000110010011 c
b1000000000000110010011 g
b1000000000000110010011 *"
b100111110111110001110001100011 .
b100111110111110001110001100011 1"
b100111110111110001110001100011 5"
b100111110111110001110001100011 >"
b100111110111110001110001100011 '
b100111110111110001110001100011 ,
b100111110111110001110001100011 ?"
b100111110111110001110001100011 K"
b11101 ;
b11101 M
b11101 \
b11101 y
b10000 ?
b10000 U
b10000 d
b10000 m
b111010010011 >
b111010010011 T
b111010010011 b
b111010010011 i
b10100 1
b10100 %"
b10100 2"
b10100 ;"
b1000000000000110010011 0
b1000000000000110010011 $"
b1000000000000110010011 0"
b1000000000000110010011 7"
b11000 /
b11000 3"
b11000 9"
b11000 ="
b11000 (
b11000 -
b11000 <"
b11000 J"
b11000 +
b11000 @"
b11000 B"
1$
#150
0$
#160
04
b0 5
b0 ]
b0 w
b0 -"
b0 6
b0 _
b0 s
b0 ,"
b11101 2
b11101 /"
b11101 D"
b11110 3
b11110 ."
b11110 C"
b100000000000010010011 .
b100000000000010010011 1"
b100000000000010010011 5"
b100000000000010010011 >"
b100000000000010010011 '
b100000000000010010011 ,
b100000000000010010011 ?"
b100000000000010010011 K"
b10011 '"
b1001111101 &"
b11101 }
b11110 !"
b1 ("
b11000 ""
b1100011 #"
b11000 9
b11000 e
b11000 k
b11000 )"
b100111110111110001110001100011 8
b100111110111110001110001100011 c
b100111110111110001110001100011 g
b100111110111110001110001100011 *"
b100000000010 S
b10 V
b10 K
b11 N
0P
b11 B
b11 Z
b11 E"
b10 A
b10 [
b10 F"
b11100 /
b11100 3"
b11100 9"
b11100 ="
b11100 (
b11100 -
b11100 <"
b11100 J"
b11100 +
b11100 @"
b11100 B"
b100111110111110001110001100011 0
b100111110111110001110001100011 $"
b100111110111110001110001100011 0"
b100111110111110001110001100011 7"
b11000 1
b11000 %"
b11000 2"
b11000 ;"
b1000000000000110010011 >
b1000000000000110010011 T
b1000000000000110010011 b
b1000000000000110010011 i
b10100 ?
b10100 U
b10100 d
b10100 m
b10 <
b10 Q
b10 ^
b10 u
b11 ;
b11 M
b11 \
b11 y
1$
#170
0$
#180
0H
0F
b0 G
b0 J
b0 A"
14
b1 5
b1 ]
b1 w
b1 -"
b1 6
b1 _
b1 s
b1 ,"
b0 2
b0 /"
b0 D"
b0 3
b0 ."
b0 C"
1P
0C
b0 D
b0 I
b0 Y
0@
b0 B
b0 Z
b0 E"
b0 A
b0 [
b0 F"
b1001111000 S
b10011 W
b1001111101 V
b11101 K
b11110 L
b1 X
b11000 N
b1100011 O
b0 '"
b1 &"
b1 }
b0 !"
b0 ("
b1 ""
b10011 #"
b11100 9
b11100 e
b11100 k
b11100 )"
b100000000000010010011 8
b100000000000010010011 c
b100000000000010010011 g
b100000000000010010011 *"
b100001000111100010011 .
b100001000111100010011 1"
b100001000111100010011 5"
b100001000111100010011 >"
b100001000111100010011 '
b100001000111100010011 ,
b100001000111100010011 ?"
b100001000111100010011 K"
0:
b0 ;
b0 M
b0 \
b0 y
b0 <
b0 Q
b0 ^
b0 u
b11000 ?
b11000 U
b11000 d
b11000 m
b100111110111110001110001100011 >
b100111110111110001110001100011 T
b100111110111110001110001100011 b
b100111110111110001110001100011 i
b11100 1
b11100 %"
b11100 2"
b11100 ;"
b100000000000010010011 0
b100000000000010010011 $"
b100000000000010010011 0"
b100000000000010010011 7"
b100000 /
b100000 3"
b100000 9"
b100000 ="
b100000 (
b100000 -
b100000 <"
b100000 J"
b100000 +
b100000 @"
b100000 B"
1$
#190
0$
#200
b1 7
b1 a
b1 o
b1 +"
b1 *
b1 ~
b1 G"
b11110 5
b11110 ]
b11110 w
b11110 -"
b1 3
b1 ."
b1 C"
1@
b1 B
b1 Z
b1 E"
b1 A
b1 [
b1 F"
b1000000000111010010011 .
b1000000000111010010011 1"
b1000000000111010010011 5"
b1000000000111010010011 >"
b1000000000111010010011 '
b1000000000111010010011 ,
b1000000000111010010011 ?"
b1000000000111010010011 K"
b1 !"
b11110 ""
b100000 9
b100000 e
b100000 k
b100000 )"
b100001000111100010011 8
b100001000111100010011 c
b100001000111100010011 g
b100001000111100010011 *"
b100000000000 S
b0 W
b1 V
b1 K
b0 L
b0 X
b1 N
b10011 O
0P
b100100 /
b100100 3"
b100100 9"
b100100 ="
b100100 (
b100100 -
b100100 <"
b100100 J"
b100100 +
b100100 @"
b100100 B"
b100001000111100010011 0
b100001000111100010011 $"
b100001000111100010011 0"
b100001000111100010011 7"
b100000 1
b100000 %"
b100000 2"
b100000 ;"
b100000000000010010011 >
b100000000000010010011 T
b100000000000010010011 b
b100000000000010010011 i
b11100 ?
b11100 U
b11100 d
b11100 m
b1 <
b1 Q
b1 ^
b1 u
b1 ;
b1 M
b1 \
b1 y
1:
1$
#210
0$
#220
b0 7
b0 a
b0 o
b0 +"
b0 *
b0 ~
b0 G"
b11101 5
b11101 ]
b11101 w
b11101 -"
b10 6
b10 _
b10 s
b10 ,"
b0 3
b0 ."
b0 C"
1P
b11110 B
b11110 Z
b11110 E"
b10 A
b10 [
b10 F"
b11110 S
b1 L
b11110 N
b10 &"
b10 }
b0 !"
b11101 ""
b100100 9
b100100 e
b100100 k
b100100 )"
b1000000000111010010011 8
b1000000000111010010011 c
b1000000000111010010011 g
b1000000000111010010011 *"
b1100000000000110010011 .
b1100000000000110010011 1"
b1100000000000110010011 5"
b1100000000000110010011 >"
b1100000000000110010011 '
b1100000000000110010011 ,
b1100000000000110010011 ?"
b1100000000000110010011 K"
b11110 ;
b11110 M
b11110 \
b11110 y
b1 =
b1 R
b1 `
b1 q
b100000 ?
b100000 U
b100000 d
b100000 m
b100001000111100010011 >
b100001000111100010011 T
b100001000111100010011 b
b100001000111100010011 i
b100100 1
b100100 %"
b100100 2"
b100100 ;"
b1000000000111010010011 0
b1000000000111010010011 $"
b1000000000111010010011 0"
b1000000000111010010011 7"
b101000 /
b101000 3"
b101000 9"
b101000 ="
b101000 (
b101000 -
b101000 <"
b101000 J"
b101000 +
b101000 @"
b101000 B"
1$
#230
0$
#240
b11 5
b11 ]
b11 w
b11 -"
b11 6
b11 _
b11 s
b11 ,"
b100111110111110001001001100011 .
b100111110111110001001001100011 1"
b100111110111110001001001100011 5"
b100111110111110001001001100011 >"
b100111110111110001001001100011 '
b100111110111110001001001100011 ,
b100111110111110001001001100011 ?"
b100111110111110001001001100011 K"
b11 &"
b11 }
b11 ""
b101000 9
b101000 e
b101000 k
b101000 )"
b1100000000000110010011 8
b1100000000000110010011 c
b1100000000000110010011 g
b1100000000000110010011 *"
b100000011100 S
b10 V
b10 K
b0 L
b11101 N
0P
b11101 B
b11101 Z
b11101 E"
b101100 /
b101100 3"
b101100 9"
b101100 ="
b101100 (
b101100 -
b101100 <"
b101100 J"
b101100 +
b101100 @"
b101100 B"
b1100000000000110010011 0
b1100000000000110010011 $"
b1100000000000110010011 0"
b1100000000000110010011 7"
b101000 1
b101000 %"
b101000 2"
b101000 ;"
b1000000000111010010011 >
b1000000000111010010011 T
b1000000000111010010011 b
b1000000000111010010011 i
b100100 ?
b100100 U
b100100 d
b100100 m
b0 =
b0 R
b0 `
b0 q
b10 <
b10 Q
b10 ^
b10 u
b11101 ;
b11101 M
b11101 \
b11101 y
1$
#250
0$
#260
b10 7
b10 a
b10 o
b10 +"
b10 )
b10 |
b10 H"
b10 *
b10 ~
b10 G"
04
b0 5
b0 ]
b0 w
b0 -"
b10 6
b10 _
b10 s
b10 ,"
b11101 2
b11101 /"
b11101 D"
b11110 3
b11110 ."
b11110 C"
b11 B
b11 Z
b11 E"
b11 A
b11 [
b11 F"
b100000000010 S
b11 V
b11 K
b11 N
b10011 '"
b1001111101 &"
b11101 }
b11110 !"
b1 ("
b100 ""
b1100011 #"
b101100 9
b101100 e
b101100 k
b101100 )"
b100111110111110001001001100011 8
b100111110111110001001001100011 c
b100111110111110001001001100011 g
b100111110111110001001001100011 *"
b1100000000000010010011 .
b1100000000000010010011 1"
b1100000000000010010011 5"
b1100000000000010010011 >"
b1100000000000010010011 '
b1100000000000010010011 ,
b1100000000000010010011 ?"
b1100000000000010010011 K"
b11 ;
b11 M
b11 \
b11 y
b11 <
b11 Q
b11 ^
b11 u
b101000 ?
b101000 U
b101000 d
b101000 m
b1100000000000110010011 >
b1100000000000110010011 T
b1100000000000110010011 b
b1100000000000110010011 i
b101100 1
b101100 %"
b101100 2"
b101100 ;"
b100111110111110001001001100011 0
b100111110111110001001001100011 $"
b100111110111110001001001100011 0"
b100111110111110001001001100011 7"
b110000 /
b110000 3"
b110000 9"
b110000 ="
b110000 (
b110000 -
b110000 <"
b110000 J"
b110000 +
b110000 @"
b110000 B"
1$
#270
0$
#280
b0 7
b0 a
b0 o
b0 +"
b0 )
b0 |
b0 H"
b0 *
b0 ~
b0 G"
14
b1 5
b1 ]
b1 w
b1 -"
b11 6
b11 _
b11 s
b11 ,"
b0 2
b0 /"
b0 D"
b0 3
b0 ."
b0 C"
b11100001000111100010011 .
b11100001000111100010011 1"
b11100001000111100010011 5"
b11100001000111100010011 >"
b11100001000111100010011 '
b11100001000111100010011 ,
b11100001000111100010011 ?"
b11100001000111100010011 K"
b0 '"
b11 &"
b11 }
b0 !"
b0 ("
b1 ""
b10011 #"
b110000 9
b110000 e
b110000 k
b110000 )"
b1100000000000010010011 8
b1100000000000010010011 c
b1100000000000010010011 g
b1100000000000010010011 *"
1!
b1001100100 S
b10011 W
b1001111101 V
b11101 K
b11110 L
b1 X
b100 N
b1100011 O
1P
0@
b0 B
b0 Z
b0 E"
b0 A
b0 [
b0 F"
b110100 /
b110100 3"
b110100 9"
b110100 ="
b110100 (
b110100 -
b110100 <"
b110100 J"
b110100 +
b110100 @"
b110100 B"
b1100000000000010010011 0
b1100000000000010010011 $"
b1100000000000010010011 0"
b1100000000000010010011 7"
b110000 1
b110000 %"
b110000 2"
b110000 ;"
b100111110111110001001001100011 >
b100111110111110001001001100011 T
b100111110111110001001001100011 b
b100111110111110001001001100011 i
b101100 ?
b101100 U
b101100 d
b101100 m
b10 =
b10 R
b10 `
b10 q
b10 <
b10 Q
b10 ^
b10 u
b0 ;
b0 M
b0 \
b0 y
0:
1$
#290
0$
#300
b11 7
b11 a
b11 o
b11 +"
b11 *
b11 ~
b11 G"
b11110 5
b11110 ]
b11110 w
b11110 -"
b111 6
b111 _
b111 s
b111 ,"
b1 3
b1 ."
b1 C"
0P
1@
b1 B
b1 Z
b1 E"
b11 A
b11 [
b11 F"
b100000000000 S
b0 W
b11 V
b11 K
b0 L
b0 X
b1 N
b10011 O
b111 &"
b111 }
b1 !"
b11110 ""
b110100 9
b110100 e
b110100 k
b110100 )"
b11100001000111100010011 8
b11100001000111100010011 c
b11100001000111100010011 g
b11100001000111100010011 *"
b101000000000111010010011 .
b101000000000111010010011 1"
b101000000000111010010011 5"
b101000000000111010010011 >"
b101000000000111010010011 '
b101000000000111010010011 ,
b101000000000111010010011 ?"
b101000000000111010010011 K"
1:
b1 ;
b1 M
b1 \
b1 y
b11 <
b11 Q
b11 ^
b11 u
b0 =
b0 R
b0 `
b0 q
b110000 ?
b110000 U
b110000 d
b110000 m
b1100000000000010010011 >
b1100000000000010010011 T
b1100000000000010010011 b
b1100000000000010010011 i
b110100 1
b110100 %"
b110100 2"
b110100 ;"
b11100001000111100010011 0
b11100001000111100010011 $"
b11100001000111100010011 0"
b11100001000111100010011 7"
b111000 /
b111000 3"
b111000 9"
b111000 ="
b111000 (
b111000 -
b111000 <"
b111000 J"
b111000 +
b111000 @"
b111000 B"
1$
#310
0$
#320
b0 7
b0 a
b0 o
b0 +"
b0 *
b0 ~
b0 G"
b11101 5
b11101 ]
b11101 w
b11101 -"
b1010 6
b1010 _
b1010 s
b1010 ,"
b0 3
b0 ."
b0 C"
b10000000000000110010011 .
b10000000000000110010011 1"
b10000000000000110010011 5"
b10000000000000110010011 >"
b10000000000000110010011 '
b10000000000000110010011 ,
b10000000000000110010011 ?"
b10000000000000110010011 K"
b1010 &"
b1010 }
b0 !"
b11101 ""
b111000 9
b111000 e
b111000 k
b111000 )"
b101000000000111010010011 8
b101000000000111010010011 c
b101000000000111010010011 g
b101000000000111010010011 *"
b11110 S
b111 V
b111 K
b1 L
b11110 N
b11110 B
b11110 Z
b11110 E"
b1010 A
b1010 [
b1010 F"
b111100 /
b111100 3"
b111100 9"
b111100 ="
b111100 (
b111100 -
b111100 <"
b111100 J"
b111100 +
b111100 @"
b111100 B"
b101000000000111010010011 0
b101000000000111010010011 $"
b101000000000111010010011 0"
b101000000000111010010011 7"
b111000 1
b111000 %"
b111000 2"
b111000 ;"
b11100001000111100010011 >
b11100001000111100010011 T
b11100001000111100010011 b
b11100001000111100010011 i
b110100 ?
b110100 U
b110100 d
b110100 m
b11 =
b11 R
b11 `
b11 q
b111 <
b111 Q
b111 ^
b111 u
b11110 ;
b11110 M
b11110 \
b11110 y
1$
#330
0$
#340
b11 5
b11 ]
b11 w
b11 -"
b100 6
b100 _
b100 s
b100 ,"
b11101 B
b11101 Z
b11101 E"
b100000011100 S
b1010 V
b1010 K
b0 L
b11101 N
b100 &"
b100 }
b11 ""
b111100 9
b111100 e
b111100 k
b111100 )"
b10000000000000110010011 8
b10000000000000110010011 c
b10000000000000110010011 g
b10000000000000110010011 *"
b100101110111110001100001100011 .
b100101110111110001100001100011 1"
b100101110111110001100001100011 5"
b100101110111110001100001100011 >"
b100101110111110001100001100011 '
b100101110111110001100001100011 ,
b100101110111110001100001100011 ?"
b100101110111110001100001100011 K"
b11101 ;
b11101 M
b11101 \
b11101 y
b1010 <
b1010 Q
b1010 ^
b1010 u
b0 =
b0 R
b0 `
b0 q
b111000 ?
b111000 U
b111000 d
b111000 m
b101000000000111010010011 >
b101000000000111010010011 T
b101000000000111010010011 b
b101000000000111010010011 i
b111100 1
b111100 %"
b111100 2"
b111100 ;"
b10000000000000110010011 0
b10000000000000110010011 $"
b10000000000000110010011 0"
b10000000000000110010011 7"
b1000000 /
b1000000 3"
b1000000 9"
b1000000 ="
b1000000 (
b1000000 -
b1000000 <"
b1000000 J"
b1000000 +
b1000000 @"
b1000000 B"
1$
#350
0$
