tb.vcd
$date
	Thu Mar 20 22:48:30 2025
$end
$version
	Icarus Verilog
$end
$timescale
	1s
$end
$scope module tb $end
$var reg 1 ! clk $end
$var reg 1 " rst $end
$scope module open_risc_v_soc_inst $end
$var wire 1 ! clk $end
$var wire 1 " rst $end
$var wire 32 # rom_inst_o [31:0] $end
$var wire 32 $ open_risc_v_inst_addr_o [31:0] $end
$scope module open_risc_v_inst $end
$var wire 1 ! clk $end
$var wire 1 " rst $end
$var wire 32 % regs_rs2_id_rdata_o [31:0] $end
$var wire 32 & regs_rs1_id_rdata_o [31:0] $end
$var wire 32 ' pc_reg_pc_o [31:0] $end
$var wire 32 ( inst_i [31:0] $end
$var wire 32 ) inst_addr_o [31:0] $end
$var wire 32 * if_inst_o [31:0] $end
$var wire 32 + if_inst_addr_o [31:0] $end
$var wire 32 , if_id_inst_o [31:0] $end
$var wire 32 - if_id_inst_addr_o [31:0] $end
$var wire 5 . id_rs2_addr_o [4:0] $end
$var wire 5 / id_rs1_addr_o [4:0] $end
$var wire 1 0 id_reg_wen_o $end
$var wire 5 1 id_rd_addr_o [4:0] $end
$var wire 32 2 id_op2_o [31:0] $end
$var wire 32 3 id_op1_o [31:0] $end
$var wire 32 4 id_inst_o [31:0] $end
$var wire 32 5 id_inst_addr_o [31:0] $end
$var wire 1 6 id_ex_reg_wen_o $end
$var wire 5 7 id_ex_rd_addr_o [4:0] $end
$var wire 32 8 id_ex_op2_o [31:0] $end
$var wire 32 9 id_ex_op1_o [31:0] $end
$var wire 32 : id_ex_inst_o [31:0] $end
$var wire 32 ; id_ex_inst_addr_o [31:0] $end
$var wire 1 < ex_reg_wen_o $end
$var wire 32 = ex_rd_data_o [31:0] $end
$var wire 5 > ex_rd_addr_o [4:0] $end
$scope module ex_inst $end
$var wire 5 ? rs2 [4:0] $end
$var wire 5 @ rs1 [4:0] $end
$var wire 1 6 reg_wen_i $end
$var wire 5 A rd_addr_i [4:0] $end
$var wire 5 B rd [4:0] $end
$var wire 7 C opcode [6:0] $end
$var wire 32 D op2_i [31:0] $end
$var wire 32 E op1_i [31:0] $end
$var wire 32 F inst_i [31:0] $end
$var wire 32 G inst_addr_i [31:0] $end
$var wire 12 H imm [11:0] $end
$var wire 7 I func7 [6:0] $end
$var wire 3 J func3 [2:0] $end
$var reg 5 K rd_addr_o [4:0] $end
$var reg 32 L rd_data_o [31:0] $end
$var reg 1 < rd_wen_o $end
$upscope $end
$scope module id_ex_inst $end
$var wire 1 ! clk $end
$var wire 1 " rst $end
$var wire 1 6 reg_wen_o $end
$var wire 1 0 reg_wen_i $end
$var wire 5 M rd_addr_o [4:0] $end
$var wire 5 N rd_addr_i [4:0] $end
$var wire 32 O op2_o [31:0] $end
$var wire 32 P op2_i [31:0] $end
$var wire 32 Q op1_o [31:0] $end
$var wire 32 R op1_i [31:0] $end
$var wire 32 S inst_o [31:0] $end
$var wire 32 T inst_i [31:0] $end
$var wire 32 U inst_addr_o [31:0] $end
$var wire 32 V inst_addr_i [31:0] $end
$scope module dff1 $end
$var wire 1 ! clk $end
$var wire 1 " rst $end
$var wire 32 W set_data [31:0] $end
$var wire 32 X data_i [31:0] $end
$var parameter 32 Y DW $end
$var reg 32 Z data_o [31:0] $end
$upscope $end
$scope module dff2 $end
$var wire 1 ! clk $end
$var wire 1 " rst $end
$var wire 32 [ set_data [31:0] $end
$var wire 32 \ data_i [31:0] $end
$var parameter 32 ] DW $end
$var reg 32 ^ data_o [31:0] $end
$upscope $end
$scope module dff3 $end
$var wire 1 ! clk $end
$var wire 1 " rst $end
$var wire 32 _ set_data [31:0] $end
$var wire 32 ` data_i [31:0] $end
$var parameter 32 a DW $end
$var reg 32 b data_o [31:0] $end
$upscope $end
$scope module dff4 $end
$var wire 1 ! clk $end
$var wire 1 " rst $end
$var wire 32 c set_data [31:0] $end
$var wire 32 d data_i [31:0] $end
$var parameter 32 e DW $end
$var reg 32 f data_o [31:0] $end
$upscope $end
$scope module dff5 $end
$var wire 1 ! clk $end
$var wire 1 " rst $end
$var wire 5 g set_data [4:0] $end
$var wire 5 h data_i [4:0] $end
$var parameter 32 i DW $end
$var reg 5 j data_o [4:0] $end
$upscope $end
$scope module dff6 $end
$var wire 1 ! clk $end
$var wire 1 " rst $end
$var wire 1 k set_data $end
$var wire 1 0 data_i $end
$var parameter 32 l DW $end
$var reg 1 6 data_o $end
$upscope $end
$upscope $end
$scope module id_inst $end
$var wire 32 m rs2_data_i [31:0] $end
$var wire 5 n rs2 [4:0] $end
$var wire 32 o rs1_data_i [31:0] $end
$var wire 5 p rs1 [4:0] $end
$var wire 5 q rd [4:0] $end
$var wire 7 r opcode [6:0] $end
$var wire 32 s inst_i [31:0] $end
$var wire 32 t inst_addr_i [31:0] $end
$var wire 12 u imm [11:0] $end
$var wire 7 v func7 [6:0] $end
$var wire 3 w func3 [2:0] $end
$var reg 32 x inst_addr_o [31:0] $end
$var reg 32 y inst_o [31:0] $end
$var reg 32 z op1_o [31:0] $end
$var reg 32 { op2_o [31:0] $end
$var reg 5 | rd_addr_o [4:0] $end
$var reg 1 0 reg_wen $end
$var reg 5 } rs1_addr_o [4:0] $end
$var reg 5 ~ rs2_addr_o [4:0] $end
$upscope $end
$scope module if_id_inst $end
$var wire 1 ! clk $end
$var wire 1 " rst $end
$var wire 32 !" inst_o [31:0] $end
$var wire 32 "" inst_i [31:0] $end
$var wire 32 #" inst_addr_o [31:0] $end
$var wire 32 $" inst_addr_i [31:0] $end
$scope module dff1 $end
$var wire 1 ! clk $end
$var wire 1 " rst $end
$var wire 32 %" set_data [31:0] $end
$var wire 32 &" data_i [31:0] $end
$var parameter 32 '" DW $end
$var reg 32 (" data_o [31:0] $end
$upscope $end
$scope module dff2 $end
$var wire 1 ! clk $end
$var wire 1 " rst $end
$var wire 32 )" set_data [31:0] $end
$var wire 32 *" data_i [31:0] $end
$var parameter 32 +" DW $end
$var reg 32 ," data_o [31:0] $end
$upscope $end
$upscope $end
$scope module ifetch_inst $end
$var wire 32 -" if2rom_addr_o [31:0] $end
$var wire 32 ." inst_addr_o [31:0] $end
$var wire 32 /" inst_o [31:0] $end
$var wire 32 0" rom_inst_i [31:0] $end
$var wire 32 1" pc_addr_i [31:0] $end
$upscope $end
$scope module pc_reg_inst $end
$var wire 1 ! clk $end
$var wire 1 " rst $end
$var reg 32 2" pc_o [31:0] $end
$upscope $end
$scope module regs_inst $end
$var wire 1 ! clk $end
$var wire 5 3" reg1_raddr_i [4:0] $end
$var wire 5 4" reg2_raddr_i [4:0] $end
$var wire 5 5" reg_waddr_i [4:0] $end
$var wire 32 6" reg_wdata_i [31:0] $end
$var wire 1 < reg_wen $end
$var wire 1 " rst $end
$var reg 32 7" reg1_rdata_o [31:0] $end
$var reg 32 8" reg2_rdata_o [31:0] $end
$var integer 32 9" i [31:0] $end
$upscope $end
$upscope $end
$scope module rom_inst $end
$var wire 32 :" inst_addr_i [31:0] $end
$var reg 32 ;" inst_o [31:0] $end
$upscope $end
$upscope $end
$upscope $end
$enddefinitions $end
$comment Show the parameter values. $end
$dumpall
b100000 +"
b100000 '"
b1 l
b101 i
b100000 e
b100000 a
b100000 ]
b100000 Y
$end
#0
$dumpvars
b10011000000000110110010011 ;"
b0 :"
b100000 9"
b0 8"
b0 7"
b0 6"
b0 5"
b0 4"
b0 3"
b0 2"
b0 1"
b10011000000000110110010011 0"
b10011000000000110110010011 /"
b0 ."
b0 -"
b0 ,"
b0 *"
b0 )"
b10011 ("
b10011000000000110110010011 &"
b10011 %"
b0 $"
b0 #"
b10011000000000110110010011 ""
b10011 !"
b0 ~
b0 }
b0 |
b0 {
b0 z
b10011 y
b0 x
b0 w
b0 v
b0 u
b0 t
b10011 s
b10011 r
b0 q
b0 p
b0 o
b0 n
b0 m
0k
b0 j
b0 h
b0 g
b0 f
b0 d
b0 c
b0 b
b0 `
b0 _
b0 ^
b0 \
b0 [
b10011 Z
b10011 X
b10011 W
b0 V
b0 U
b10011 T
b10011 S
b0 R
b0 Q
b0 P
b0 O
b0 N
b0 M
b0 L
b0 K
b0 J
b0 I
b0 H
b0 G
b10011 F
b0 E
b0 D
b10011 C
b0 B
b0 A
b0 @
b0 ?
b0 >
b0 =
0<
b0 ;
b10011 :
b0 9
b0 8
b0 7
06
b0 5
b10011 4
b0 3
b0 2
b0 1
10
b0 /
b0 .
b0 -
b10011 ,
b0 +
b10011000000000110110010011 *
b0 )
b10011000000000110110010011 (
b0 '
b0 &
b0 %
b0 $
b10011000000000110110010011 #
0"
1!
$end
#10
0!
#20
b100000 9"
1!
#30
1"
0!
#40
b11011 1
b11011 N
b11011 h
b11011 |
b100110 2
b100110 P
b100110 d
b100110 {
b11011000000000111000010011 *
b11011000000000111000010011 ""
b11011000000000111000010011 &"
b11011000000000111000010011 /"
b11011000000000111000010011 #
b11011000000000111000010011 (
b11011000000000111000010011 0"
b11011000000000111000010011 ;"
b1 v
b100110 u
b110 n
b11011 q
b10011000000000110110010011 4
b10011000000000110110010011 T
b10011000000000110110010011 X
b10011000000000110110010011 y
1<
b100 +
b100 $"
b100 *"
b100 ."
b100 $
b100 )
b100 -"
b100 :"
b100 '
b100 1"
b100 2"
b10011000000000110110010011 ,
b10011000000000110110010011 s
b10011000000000110110010011 !"
b10011000000000110110010011 ("
16
1!
#50
0!
#60
b11100 1
b11100 N
b11100 h
b11100 |
b110110 2
b110110 P
b110110 d
b110110 {
b11011 >
b11011 K
b11011 5"
b100110 =
b100110 L
b100110 6"
b1 I
b100110 H
b110 ?
b11011 B
b110110 u
b10110 n
b11100 q
b100 5
b100 V
b100 \
b100 x
b11011000000000111000010011 4
b11011000000000111000010011 T
b11011000000000111000010011 X
b11011000000000111000010011 y
b1110011011000111010110011 *
b1110011011000111010110011 ""
b1110011011000111010110011 &"
b1110011011000111010110011 /"
b1110011011000111010110011 #
b1110011011000111010110011 (
b1110011011000111010110011 0"
b1110011011000111010110011 ;"
b11011 7
b11011 A
b11011 M
b11011 j
b100110 8
b100110 D
b100110 O
b100110 f
b10011000000000110110010011 :
b10011000000000110110010011 F
b10011000000000110110010011 S
b10011000000000110110010011 Z
b100 -
b100 t
b100 #"
b100 ,"
b11011000000000111000010011 ,
b11011000000000111000010011 s
b11011000000000111000010011 !"
b11011000000000111000010011 ("
b1000 +
b1000 $"
b1000 *"
b1000 ."
b1000 $
b1000 )
b1000 -"
b1000 :"
b1000 '
b1000 1"
b1000 2"
1!
#70
0!
#80
b100110 3
b100110 R
b100110 `
b100110 z
b110110 %
b110110 m
b110110 8"
b100110 &
b100110 o
b100110 7"
b11101 1
b11101 N
b11101 h
b11101 |
b110110 2
b110110 P
b110110 d
b110110 {
b11100 .
b11100 ~
b11100 4"
b11011 /
b11011 }
b11011 3"
bx *
bx ""
bx &"
bx /"
bx #
bx (
bx 0"
bx ;"
b0 v
b11100 u
b11100 n
b11011 p
b11101 q
b110011 r
b1000 5
b1000 V
b1000 \
b1000 x
b1110011011000111010110011 4
b1110011011000111010110011 T
b1110011011000111010110011 X
b1110011011000111010110011 y
b110110 H
b10110 ?
b11100 B
b11100 >
b11100 K
b11100 5"
b110110 =
b110110 L
b110110 6"
b1100 +
b1100 $"
b1100 *"
b1100 ."
b1100 $
b1100 )
b1100 -"
b1100 :"
b1100 '
b1100 1"
b1100 2"
b1110011011000111010110011 ,
b1110011011000111010110011 s
b1110011011000111010110011 !"
b1110011011000111010110011 ("
b1000 -
b1000 t
b1000 #"
b1000 ,"
b11011000000000111000010011 :
b11011000000000111000010011 F
b11011000000000111000010011 S
b11011000000000111000010011 Z
b100 ;
b100 G
b100 U
b100 ^
b110110 8
b110110 D
b110110 O
b110110 f
b11100 7
b11100 A
b11100 M
b11100 j
1!
#90
0!
#100
b0 %
b0 m
b0 8"
b0 &
b0 o
b0 7"
00
b0 1
b0 N
b0 h
b0 |
b0 2
b0 P
b0 d
b0 {
b0 3
b0 R
b0 `
b0 z
b0 .
b0 ~
b0 4"
b0 /
b0 }
b0 3"
b11101 >
b11101 K
b11101 5"
b1011100 =
b1011100 L
b1011100 6"
b0 I
b11100 H
b11100 ?
b11011 @
b11101 B
b110011 C
bx v
bx u
bx n
bx p
bx w
bx q
bx r
b1100 5
b1100 V
b1100 \
b1100 x
bx 4
bx T
bx X
bx y
b11101 7
b11101 A
b11101 M
b11101 j
b100110 9
b100110 E
b100110 Q
b100110 b
b1000 ;
b1000 G
b1000 U
b1000 ^
b1110011011000111010110011 :
b1110011011000111010110011 F
b1110011011000111010110011 S
b1110011011000111010110011 Z
b1100 -
b1100 t
b1100 #"
b1100 ,"
bx ,
bx s
bx !"
bx ("
b10000 +
b10000 $"
b10000 *"
b10000 ."
b10000 $
b10000 )
b10000 -"
b10000 :"
b10000 '
b10000 1"
b10000 2"
1!
#110
0!
#120
b10000 5
b10000 V
b10000 \
b10000 x
bx I
bx H
bx ?
bx @
bx J
bx B
bx C
0<
b0 >
b0 K
b0 5"
b0 =
b0 L
b0 6"
b10100 +
b10100 $"
b10100 *"
b10100 ."
b10100 $
b10100 )
b10100 -"
b10100 :"
b10100 '
b10100 1"
b10100 2"
b10000 -
b10000 t
b10000 #"
b10000 ,"
bx :
bx F
bx S
bx Z
b1100 ;
b1100 G
b1100 U
b1100 ^
b0 9
b0 E
b0 Q
b0 b
b0 8
b0 D
b0 O
b0 f
b0 7
b0 A
b0 M
b0 j
06
1!
#130
0!
#140
b10100 5
b10100 V
b10100 \
b10100 x
b10000 ;
b10000 G
b10000 U
b10000 ^
b10100 -
b10100 t
b10100 #"
b10100 ,"
b11000 +
b11000 $"
b11000 *"
b11000 ."
b11000 $
b11000 )
b11000 -"
b11000 :"
b11000 '
b11000 1"
b11000 2"
1!
#150
0!
#160
b11000 5
b11000 V
b11000 \
b11000 x
b11100 +
b11100 $"
b11100 *"
b11100 ."
b11100 $
b11100 )
b11100 -"
b11100 :"
b11100 '
b11100 1"
b11100 2"
b11000 -
b11000 t
b11000 #"
b11000 ,"
b10100 ;
b10100 G
b10100 U
b10100 ^
1!
#170
0!
#180
b11100 5
b11100 V
b11100 \
b11100 x
b11000 ;
b11000 G
b11000 U
b11000 ^
b11100 -
b11100 t
b11100 #"
b11100 ,"
b100000 +
b100000 $"
b100000 *"
b100000 ."
b100000 $
b100000 )
b100000 -"
b100000 :"
b100000 '
b100000 1"
b100000 2"
1!
#190
0!
#200
b100000 5
b100000 V
b100000 \
b100000 x
b100100 +
b100100 $"
b100100 *"
b100100 ."
b100100 $
b100100 )
b100100 -"
b100100 :"
b100100 '
b100100 1"
b100100 2"
b100000 -
b100000 t
b100000 #"
b100000 ,"
b11100 ;
b11100 G
b11100 U
b11100 ^
1!
#210
0!
#220
b100100 5
b100100 V
b100100 \
b100100 x
b100000 ;
b100000 G
b100000 U
b100000 ^
b100100 -
b100100 t
b100100 #"
b100100 ,"
b101000 +
b101000 $"
b101000 *"
b101000 ."
b101000 $
b101000 )
b101000 -"
b101000 :"
b101000 '
b101000 1"
b101000 2"
1!
#230
0!
#240
b101000 5
b101000 V
b101000 \
b101000 x
b101100 +
b101100 $"
b101100 *"
b101100 ."
b101100 $
b101100 )
b101100 -"
b101100 :"
b101100 '
b101100 1"
b101100 2"
b101000 -
b101000 t
b101000 #"
b101000 ,"
b100100 ;
b100100 G
b100100 U
b100100 ^
1!
#250
0!
#260
b101100 5
b101100 V
b101100 \
b101100 x
b101000 ;
b101000 G
b101000 U
b101000 ^
b101100 -
b101100 t
b101100 #"
b101100 ,"
b110000 +
b110000 $"
b110000 *"
b110000 ."
b110000 $
b110000 )
b110000 -"
b110000 :"
b110000 '
b110000 1"
b110000 2"
1!
#270
0!
#280
b110000 5
b110000 V
b110000 \
b110000 x
b110100 +
b110100 $"
b110100 *"
b110100 ."
b110100 $
b110100 )
b110100 -"
b110100 :"
b110100 '
b110100 1"
b110100 2"
b110000 -
b110000 t
b110000 #"
b110000 ,"
b101100 ;
b101100 G
b101100 U
b101100 ^
1!
#290
0!
#300
b110100 5
b110100 V
b110100 \
b110100 x
b110000 ;
b110000 G
b110000 U
b110000 ^
b110100 -
b110100 t
b110100 #"
b110100 ,"
b111000 +
b111000 $"
b111000 *"
b111000 ."
b111000 $
b111000 )
b111000 -"
b111000 :"
b111000 '
b111000 1"
b111000 2"
1!
#310
0!
#320
b111000 5
b111000 V
b111000 \
b111000 x
b111100 +
b111100 $"
b111100 *"
b111100 ."
b111100 $
b111100 )
b111100 -"
b111100 :"
b111100 '
b111100 1"
b111100 2"
b111000 -
b111000 t
b111000 #"
b111000 ,"
b110100 ;
b110100 G
b110100 U
b110100 ^
1!
#330
0!
#340
b111100 5
b111100 V
b111100 \
b111100 x
b111000 ;
b111000 G
b111000 U
b111000 ^
b111100 -
b111100 t
b111100 #"
b111100 ,"
b1000000 +
b1000000 $"
b1000000 *"
b1000000 ."
b1000000 $
b1000000 )
b1000000 -"
b1000000 :"
b1000000 '
b1000000 1"
b1000000 2"
1!
#350
0!
#360
b1000000 5
b1000000 V
b1000000 \
b1000000 x
b1000100 +
b1000100 $"
b1000100 *"
b1000100 ."
b1000100 $
b1000100 )
b1000100 -"
b1000100 :"
b1000100 '
b1000100 1"
b1000100 2"
b1000000 -
b1000000 t
b1000000 #"
b1000000 ,"
b111100 ;
b111100 G
b111100 U
b111100 ^
1!
#370
0!
#380
b1000100 5
b1000100 V
b1000100 \
b1000100 x
b1000000 ;
b1000000 G
b1000000 U
b1000000 ^
b1000100 -
b1000100 t
b1000100 #"
b1000100 ,"
b1001000 +
b1001000 $"
b1001000 *"
b1001000 ."
b1001000 $
b1001000 )
b1001000 -"
b1001000 :"
b1001000 '
b1001000 1"
b1001000 2"
1!
#390
0!
#400
b1001000 5
b1001000 V
b1001000 \
b1001000 x
b1001100 +
b1001100 $"
b1001100 *"
b1001100 ."
b1001100 $
b1001100 )
b1001100 -"
b1001100 :"
b1001100 '
b1001100 1"
b1001100 2"
b1001000 -
b1001000 t
b1001000 #"
b1001000 ,"
b1000100 ;
b1000100 G
b1000100 U
b1000100 ^
1!
#410
0!
#420
b1001100 5
b1001100 V
b1001100 \
b1001100 x
b1001000 ;
b1001000 G
b1001000 U
b1001000 ^
b1001100 -
b1001100 t
b1001100 #"
b1001100 ,"
b1010000 +
b1010000 $"
b1010000 *"
b1010000 ."
b1010000 $
b1010000 )
b1010000 -"
b1010000 :"
b1010000 '
b1010000 1"
b1010000 2"
1!
#430
0!
#440
b1010000 5
b1010000 V
b1010000 \
b1010000 x
b1010100 +
b1010100 $"
b1010100 *"
b1010100 ."
b1010100 $
b1010100 )
b1010100 -"
b1010100 :"
b1010100 '
b1010100 1"
b1010100 2"
b1010000 -
b1010000 t
b1010000 #"
b1010000 ,"
b1001100 ;
b1001100 G
b1001100 U
b1001100 ^
1!
#450
0!
#460
b1010100 5
b1010100 V
b1010100 \
b1010100 x
b1010000 ;
b1010000 G
b1010000 U
b1010000 ^
b1010100 -
b1010100 t
b1010100 #"
b1010100 ,"
b1011000 +
b1011000 $"
b1011000 *"
b1011000 ."
b1011000 $
b1011000 )
b1011000 -"
b1011000 :"
b1011000 '
b1011000 1"
b1011000 2"
1!
#470
0!
#480
b1011000 5
b1011000 V
b1011000 \
b1011000 x
b1011100 +
b1011100 $"
b1011100 *"
b1011100 ."
b1011100 $
b1011100 )
b1011100 -"
b1011100 :"
b1011100 '
b1011100 1"
b1011100 2"
b1011000 -
b1011000 t
b1011000 #"
b1011000 ,"
b1010100 ;
b1010100 G
b1010100 U
b1010100 ^
1!
#490
0!
#500
b1011100 5
b1011100 V
b1011100 \
b1011100 x
b1011000 ;
b1011000 G
b1011000 U
b1011000 ^
b1011100 -
b1011100 t
b1011100 #"
b1011100 ,"
b1100000 +
b1100000 $"
b1100000 *"
b1100000 ."
b1100000 $
b1100000 )
b1100000 -"
b1100000 :"
b1100000 '
b1100000 1"
b1100000 2"
1!
#510
0!
#520
b1100000 5
b1100000 V
b1100000 \
b1100000 x
b1100100 +
b1100100 $"
b1100100 *"
b1100100 ."
b1100100 $
b1100100 )
b1100100 -"
b1100100 :"
b1100100 '
b1100100 1"
b1100100 2"
b1100000 -
b1100000 t
b1100000 #"
b1100000 ,"
b1011100 ;
b1011100 G
b1011100 U
b1011100 ^
1!
#530
0!
#540
b1100100 5
b1100100 V
b1100100 \
b1100100 x
b1100000 ;
b1100000 G
b1100000 U
b1100000 ^
b1100100 -
b1100100 t
b1100100 #"
b1100100 ,"
b1101000 +
b1101000 $"
b1101000 *"
b1101000 ."
b1101000 $
b1101000 )
b1101000 -"
b1101000 :"
b1101000 '
b1101000 1"
b1101000 2"
1!
#550
0!
#560
b1101000 5
b1101000 V
b1101000 \
b1101000 x
b1101100 +
b1101100 $"
b1101100 *"
b1101100 ."
b1101100 $
b1101100 )
b1101100 -"
b1101100 :"
b1101100 '
b1101100 1"
b1101100 2"
b1101000 -
b1101000 t
b1101000 #"
b1101000 ,"
b1100100 ;
b1100100 G
b1100100 U
b1100100 ^
1!
#570
0!
#580
b1101100 5
b1101100 V
b1101100 \
b1101100 x
b1101000 ;
b1101000 G
b1101000 U
b1101000 ^
b1101100 -
b1101100 t
b1101100 #"
b1101100 ,"
b1110000 +
b1110000 $"
b1110000 *"
b1110000 ."
b1110000 $
b1110000 )
b1110000 -"
b1110000 :"
b1110000 '
b1110000 1"
b1110000 2"
1!
#590
0!
#600
b1110000 5
b1110000 V
b1110000 \
b1110000 x
b1110100 +
b1110100 $"
b1110100 *"
b1110100 ."
b1110100 $
b1110100 )
b1110100 -"
b1110100 :"
b1110100 '
b1110100 1"
b1110100 2"
b1110000 -
b1110000 t
b1110000 #"
b1110000 ,"
b1101100 ;
b1101100 G
b1101100 U
b1101100 ^
1!
#610
0!
#620
b1110100 5
b1110100 V
b1110100 \
b1110100 x
b1110000 ;
b1110000 G
b1110000 U
b1110000 ^
b1110100 -
b1110100 t
b1110100 #"
b1110100 ,"
b1111000 +
b1111000 $"
b1111000 *"
b1111000 ."
b1111000 $
b1111000 )
b1111000 -"
b1111000 :"
b1111000 '
b1111000 1"
b1111000 2"
1!
#630
0!
#640
b1111000 5
b1111000 V
b1111000 \
b1111000 x
b1111100 +
b1111100 $"
b1111100 *"
b1111100 ."
b1111100 $
b1111100 )
b1111100 -"
b1111100 :"
b1111100 '
b1111100 1"
b1111100 2"
b1111000 -
b1111000 t
b1111000 #"
b1111000 ,"
b1110100 ;
b1110100 G
b1110100 U
b1110100 ^
1!
#650
0!
#660
b1111100 5
b1111100 V
b1111100 \
b1111100 x
b1111000 ;
b1111000 G
b1111000 U
b1111000 ^
b1111100 -
b1111100 t
b1111100 #"
b1111100 ,"
b10000000 +
b10000000 $"
b10000000 *"
b10000000 ."
b10000000 $
b10000000 )
b10000000 -"
b10000000 :"
b10000000 '
b10000000 1"
b10000000 2"
1!
#670
0!
#680
b10000000 5
b10000000 V
b10000000 \
b10000000 x
b10000100 +
b10000100 $"
b10000100 *"
b10000100 ."
b10000100 $
b10000100 )
b10000100 -"
b10000100 :"
b10000100 '
b10000100 1"
b10000100 2"
b10000000 -
b10000000 t
b10000000 #"
b10000000 ,"
b1111100 ;
b1111100 G
b1111100 U
b1111100 ^
1!
#690
0!
#700
b10000100 5
b10000100 V
b10000100 \
b10000100 x
b10000000 ;
b10000000 G
b10000000 U
b10000000 ^
b10000100 -
b10000100 t
b10000100 #"
b10000100 ,"
b10001000 +
b10001000 $"
b10001000 *"
b10001000 ."
b10001000 $
b10001000 )
b10001000 -"
b10001000 :"
b10001000 '
b10001000 1"
b10001000 2"
1!
#710
0!
#720
b10001000 5
b10001000 V
b10001000 \
b10001000 x
b10001100 +
b10001100 $"
b10001100 *"
b10001100 ."
b10001100 $
b10001100 )
b10001100 -"
b10001100 :"
b10001100 '
b10001100 1"
b10001100 2"
b10001000 -
b10001000 t
b10001000 #"
b10001000 ,"
b10000100 ;
b10000100 G
b10000100 U
b10000100 ^
1!
#730
0!
#740
b10001100 5
b10001100 V
b10001100 \
b10001100 x
b10001000 ;
b10001000 G
b10001000 U
b10001000 ^
b10001100 -
b10001100 t
b10001100 #"
b10001100 ,"
b10010000 +
b10010000 $"
b10010000 *"
b10010000 ."
b10010000 $
b10010000 )
b10010000 -"
b10010000 :"
b10010000 '
b10010000 1"
b10010000 2"
1!
#750
0!
#760
b10010000 5
b10010000 V
b10010000 \
b10010000 x
b10010100 +
b10010100 $"
b10010100 *"
b10010100 ."
b10010100 $
b10010100 )
b10010100 -"
b10010100 :"
b10010100 '
b10010100 1"
b10010100 2"
b10010000 -
b10010000 t
b10010000 #"
b10010000 ,"
b10001100 ;
b10001100 G
b10001100 U
b10001100 ^
1!
#770
0!
#780
b10010100 5
b10010100 V
b10010100 \
b10010100 x
b10010000 ;
b10010000 G
b10010000 U
b10010000 ^
b10010100 -
b10010100 t
b10010100 #"
b10010100 ,"
b10011000 +
b10011000 $"
b10011000 *"
b10011000 ."
b10011000 $
b10011000 )
b10011000 -"
b10011000 :"
b10011000 '
b10011000 1"
b10011000 2"
1!
#790
0!
#800
b10011000 5
b10011000 V
b10011000 \
b10011000 x
b10011100 +
b10011100 $"
b10011100 *"
b10011100 ."
b10011100 $
b10011100 )
b10011100 -"
b10011100 :"
b10011100 '
b10011100 1"
b10011100 2"
b10011000 -
b10011000 t
b10011000 #"
b10011000 ,"
b10010100 ;
b10010100 G
b10010100 U
b10010100 ^
1!
#810
0!
#820
b10011100 5
b10011100 V
b10011100 \
b10011100 x
b10011000 ;
b10011000 G
b10011000 U
b10011000 ^
b10011100 -
b10011100 t
b10011100 #"
b10011100 ,"
b10100000 +
b10100000 $"
b10100000 *"
b10100000 ."
b10100000 $
b10100000 )
b10100000 -"
b10100000 :"
b10100000 '
b10100000 1"
b10100000 2"
1!
#830
0!
#840
b10100000 5
b10100000 V
b10100000 \
b10100000 x
b10100100 +
b10100100 $"
b10100100 *"
b10100100 ."
b10100100 $
b10100100 )
b10100100 -"
b10100100 :"
b10100100 '
b10100100 1"
b10100100 2"
b10100000 -
b10100000 t
b10100000 #"
b10100000 ,"
b10011100 ;
b10011100 G
b10011100 U
b10011100 ^
1!
#850
0!
#860
b10100100 5
b10100100 V
b10100100 \
b10100100 x
b10100000 ;
b10100000 G
b10100000 U
b10100000 ^
b10100100 -
b10100100 t
b10100100 #"
b10100100 ,"
b10101000 +
b10101000 $"
b10101000 *"
b10101000 ."
b10101000 $
b10101000 )
b10101000 -"
b10101000 :"
b10101000 '
b10101000 1"
b10101000 2"
1!
#870
0!
#880
b10101000 5
b10101000 V
b10101000 \
b10101000 x
b10101100 +
b10101100 $"
b10101100 *"
b10101100 ."
b10101100 $
b10101100 )
b10101100 -"
b10101100 :"
b10101100 '
b10101100 1"
b10101100 2"
b10101000 -
b10101000 t
b10101000 #"
b10101000 ,"
b10100100 ;
b10100100 G
b10100100 U
b10100100 ^
1!
#890
0!
#900
b10101100 5
b10101100 V
b10101100 \
b10101100 x
b10101000 ;
b10101000 G
b10101000 U
b10101000 ^
b10101100 -
b10101100 t
b10101100 #"
b10101100 ,"
b10110000 +
b10110000 $"
b10110000 *"
b10110000 ."
b10110000 $
b10110000 )
b10110000 -"
b10110000 :"
b10110000 '
b10110000 1"
b10110000 2"
1!
#910
0!
#920
b10110000 5
b10110000 V
b10110000 \
b10110000 x
b10110100 +
b10110100 $"
b10110100 *"
b10110100 ."
b10110100 $
b10110100 )
b10110100 -"
b10110100 :"
b10110100 '
b10110100 1"
b10110100 2"
b10110000 -
b10110000 t
b10110000 #"
b10110000 ,"
b10101100 ;
b10101100 G
b10101100 U
b10101100 ^
1!
#930
0!
#940
b10110100 5
b10110100 V
b10110100 \
b10110100 x
b10110000 ;
b10110000 G
b10110000 U
b10110000 ^
b10110100 -
b10110100 t
b10110100 #"
b10110100 ,"
b10111000 +
b10111000 $"
b10111000 *"
b10111000 ."
b10111000 $
b10111000 )
b10111000 -"
b10111000 :"
b10111000 '
b10111000 1"
b10111000 2"
1!
#950
0!
#960
b10111000 5
b10111000 V
b10111000 \
b10111000 x
b10111100 +
b10111100 $"
b10111100 *"
b10111100 ."
b10111100 $
b10111100 )
b10111100 -"
b10111100 :"
b10111100 '
b10111100 1"
b10111100 2"
b10111000 -
b10111000 t
b10111000 #"
b10111000 ,"
b10110100 ;
b10110100 G
b10110100 U
b10110100 ^
1!
#970
0!
#980
b10111100 5
b10111100 V
b10111100 \
b10111100 x
b10111000 ;
b10111000 G
b10111000 U
b10111000 ^
b10111100 -
b10111100 t
b10111100 #"
b10111100 ,"
b11000000 +
b11000000 $"
b11000000 *"
b11000000 ."
b11000000 $
b11000000 )
b11000000 -"
b11000000 :"
b11000000 '
b11000000 1"
b11000000 2"
1!
#990
0!
#1000
b11000000 5
b11000000 V
b11000000 \
b11000000 x
b11000100 +
b11000100 $"
b11000100 *"
b11000100 ."
b11000100 $
b11000100 )
b11000100 -"
b11000100 :"
b11000100 '
b11000100 1"
b11000100 2"
b11000000 -
b11000000 t
b11000000 #"
b11000000 ,"
b10111100 ;
b10111100 G
b10111100 U
b10111100 ^
1!
