phase2/sim/tb.vcd
$date
	Wed Apr 16 00:15:39 2025
$end
$version
	Icarus Verilog
$end
$timescale
	1s
$end
$scope module tb $end
$var wire 1 ! x3 $end
$var wire 1 " x27 $end
$var wire 1 # x26 $end
$var reg 1 $ clk $end
$var reg 1 % rst $end
$var integer 32 & r [31:0] $end
$scope module open_risc_v_soc_inst $end
$var wire 1 $ clk $end
$var wire 1 % rst $end
$var wire 32 ' rom_inst_o [31:0] $end
$var wire 32 ( open_risc_v_inst_addr_o [31:0] $end
$scope module open_risc_v_inst $end
$var wire 1 $ clk $end
$var wire 1 % rst $end
$var wire 32 ) regs_rs2_id_rdata_o [31:0] $end
$var wire 32 * regs_rs1_id_rdata_o [31:0] $end
$var wire 32 + pc_reg_pc_o [31:0] $end
$var wire 32 , inst_i [31:0] $end
$var wire 32 - inst_addr_o [31:0] $end
$var wire 32 . if_inst_o [31:0] $end
$var wire 32 / if_inst_addr_o [31:0] $end
$var wire 32 0 if_id_inst_o [31:0] $end
$var wire 32 1 if_id_inst_addr_o [31:0] $end
$var wire 5 2 id_rs2_addr_o [4:0] $end
$var wire 5 3 id_rs1_addr_o [4:0] $end
$var wire 1 4 id_reg_wen_o $end
$var wire 5 5 id_rd_addr_o [4:0] $end
$var wire 32 6 id_op2_o [31:0] $end
$var wire 32 7 id_op1_o [31:0] $end
$var wire 32 8 id_inst_o [31:0] $end
$var wire 32 9 id_inst_addr_o [31:0] $end
$var wire 1 : id_ex_reg_wen_o $end
$var wire 5 ; id_ex_rd_addr_o [4:0] $end
$var wire 32 < id_ex_op2_o [31:0] $end
$var wire 32 = id_ex_op1_o [31:0] $end
$var wire 32 > id_ex_inst_o [31:0] $end
$var wire 32 ? id_ex_inst_addr_o [31:0] $end
$var wire 32 @ id_ex_base_addr_o [31:0] $end
$var wire 32 A id_ex_addr_offset_o [31:0] $end
$var wire 32 B id_base_addr_o [31:0] $end
$var wire 32 C id_addr_offset_o [31:0] $end
$var wire 1 D ex_reg_wen_o $end
$var wire 32 E ex_rd_data_o [31:0] $end
$var wire 5 F ex_rd_addr_o [4:0] $end
$var wire 1 G ex_jump_en_o $end
$var wire 32 H ex_jump_addr_o [31:0] $end
$var wire 1 I ex_hold_flag_o $end
$var wire 1 J ctrl_jump_en_o $end
$var wire 32 K ctrl_jump_addr_o [31:0] $end
$var wire 1 L ctrl_hold_flag_o $end
$scope module ctrl_inst $end
$var wire 1 G jump_en_i $end
$var wire 32 M jump_addr_i [31:0] $end
$var wire 1 I hold_flag_ex_i $end
$var reg 1 L hold_flag_o $end
$var reg 32 N jump_addr_o [31:0] $end
$var reg 1 J jump_en_o $end
$upscope $end
$scope module ex_inst $end
$var wire 32 O op1_i_and_op2_i [31:0] $end
$var wire 32 P op1_i_or_op2_i [31:0] $end
$var wire 32 Q op1_i_xor_op2_i [31:0] $end
$var wire 5 R shamt [4:0] $end
$var wire 5 S rs2 [4:0] $end
$var wire 5 T rs1 [4:0] $end
$var wire 1 : reg_wen_i $end
$var wire 5 U rd_addr_i [4:0] $end
$var wire 5 V rd [4:0] $end
$var wire 7 W opcode [6:0] $end
$var wire 1 X op_i_lt_op2_i_unsigned $end
$var wire 1 Y op_i_lt_op2_i_signed $end
$var wire 1 Z op_i_equal_op2_i $end
$var wire 32 [ op2_i [31:0] $end
$var wire 32 \ op1_i_shift_right_op2_i [31:0] $end
$var wire 32 ] op1_i_shift_left_op2_i [31:0] $end
$var wire 32 ^ op1_i_add_op2_i [31:0] $end
$var wire 32 _ op1_i [31:0] $end
$var wire 32 ` inst_i [31:0] $end
$var wire 32 a inst_addr_i [31:0] $end
$var wire 12 b imm [11:0] $end
$var wire 7 c func7 [6:0] $end
$var wire 3 d func3 [2:0] $end
$var wire 32 e base_addr_i [31:0] $end
$var wire 32 f base_addr_add_addr_offset [31:0] $end
$var wire 32 g addr_offset_i [31:0] $end
$var wire 32 h SRA_mask [31:0] $end
$var reg 1 I hold_flag_o $end
$var reg 32 i jump_addr_o [31:0] $end
$var reg 1 G jump_en_o $end
$var reg 5 j rd_addr_o [4:0] $end
$var reg 32 k rd_data_o [31:0] $end
$var reg 1 D rd_wen_o $end
$upscope $end
$scope module id_ex_inst $end
$var wire 1 $ clk $end
$var wire 1 L hold_flag_i $end
$var wire 1 % rst $end
$var wire 1 : reg_wen_o $end
$var wire 1 4 reg_wen_i $end
$var wire 5 l rd_addr_o [4:0] $end
$var wire 5 m rd_addr_i [4:0] $end
$var wire 32 n op2_o [31:0] $end
$var wire 32 o op2_i [31:0] $end
$var wire 32 p op1_o [31:0] $end
$var wire 32 q op1_i [31:0] $end
$var wire 32 r inst_o [31:0] $end
$var wire 32 s inst_i [31:0] $end
$var wire 32 t inst_addr_o [31:0] $end
$var wire 32 u inst_addr_i [31:0] $end
$var wire 32 v base_addr_o [31:0] $end
$var wire 32 w base_addr_i [31:0] $end
$var wire 32 x addr_offset_o [31:0] $end
$var wire 32 y addr_offset_i [31:0] $end
$scope module dff1 $end
$var wire 1 $ clk $end
$var wire 1 L hold_flag_i $end
$var wire 1 % rst $end
$var wire 32 z set_data [31:0] $end
$var wire 32 { data_i [31:0] $end
$var parameter 32 | DW $end
$var reg 32 } data_o [31:0] $end
$upscope $end
$scope module dff2 $end
$var wire 1 $ clk $end
$var wire 1 L hold_flag_i $end
$var wire 1 % rst $end
$var wire 32 ~ set_data [31:0] $end
$var wire 32 !" data_i [31:0] $end
$var parameter 32 "" DW $end
$var reg 32 #" data_o [31:0] $end
$upscope $end
$scope module dff3 $end
$var wire 1 $ clk $end
$var wire 1 L hold_flag_i $end
$var wire 1 % rst $end
$var wire 32 $" set_data [31:0] $end
$var wire 32 %" data_i [31:0] $end
$var parameter 32 &" DW $end
$var reg 32 '" data_o [31:0] $end
$upscope $end
$scope module dff4 $end
$var wire 1 $ clk $end
$var wire 1 L hold_flag_i $end
$var wire 1 % rst $end
$var wire 32 (" set_data [31:0] $end
$var wire 32 )" data_i [31:0] $end
$var parameter 32 *" DW $end
$var reg 32 +" data_o [31:0] $end
$upscope $end
$scope module dff5 $end
$var wire 1 $ clk $end
$var wire 1 L hold_flag_i $end
$var wire 1 % rst $end
$var wire 5 ," set_data [4:0] $end
$var wire 5 -" data_i [4:0] $end
$var parameter 32 ." DW $end
$var reg 5 /" data_o [4:0] $end
$upscope $end
$scope module dff6 $end
$var wire 1 $ clk $end
$var wire 1 L hold_flag_i $end
$var wire 1 % rst $end
$var wire 1 0" set_data $end
$var wire 1 4 data_i $end
$var parameter 32 1" DW $end
$var reg 1 : data_o $end
$upscope $end
$scope module dff7 $end
$var wire 1 $ clk $end
$var wire 1 L hold_flag_i $end
$var wire 1 % rst $end
$var wire 32 2" set_data [31:0] $end
$var wire 32 3" data_i [31:0] $end
$var parameter 32 4" DW $end
$var reg 32 5" data_o [31:0] $end
$upscope $end
$scope module dff8 $end
$var wire 1 $ clk $end
$var wire 1 L hold_flag_i $end
$var wire 1 % rst $end
$var wire 32 6" set_data [31:0] $end
$var wire 32 7" data_i [31:0] $end
$var parameter 32 8" DW $end
$var reg 32 9" data_o [31:0] $end
$upscope $end
$upscope $end
$scope module id_inst $end
$var wire 5 :" shamt [4:0] $end
$var wire 32 ;" rs2_data_i [31:0] $end
$var wire 5 <" rs2 [4:0] $end
$var wire 32 =" rs1_data_i [31:0] $end
$var wire 5 >" rs1 [4:0] $end
$var wire 5 ?" rd [4:0] $end
$var wire 7 @" opcode [6:0] $end
$var wire 32 A" inst_i [31:0] $end
$var wire 32 B" inst_addr_i [31:0] $end
$var wire 12 C" imm [11:0] $end
$var wire 7 D" func7 [6:0] $end
$var wire 3 E" func3 [2:0] $end
$var reg 32 F" addr_offset_o [31:0] $end
$var reg 32 G" base_addr_o [31:0] $end
$var reg 32 H" inst_addr_o [31:0] $end
$var reg 32 I" inst_o [31:0] $end
$var reg 32 J" op1_o [31:0] $end
$var reg 32 K" op2_o [31:0] $end
$var reg 5 L" rd_addr_o [4:0] $end
$var reg 1 4 reg_wen $end
$var reg 5 M" rs1_addr_o [4:0] $end
$var reg 5 N" rs2_addr_o [4:0] $end
$upscope $end
$scope module if_id_inst $end
$var wire 1 $ clk $end
$var wire 1 L hold_flag_i $end
$var wire 1 % rst $end
$var wire 32 O" inst_o [31:0] $end
$var wire 32 P" inst_i [31:0] $end
$var wire 32 Q" inst_addr_o [31:0] $end
$var wire 32 R" inst_addr_i [31:0] $end
$scope module dff1 $end
$var wire 1 $ clk $end
$var wire 1 L hold_flag_i $end
$var wire 1 % rst $end
$var wire 32 S" set_data [31:0] $end
$var wire 32 T" data_i [31:0] $end
$var parameter 32 U" DW $end
$var reg 32 V" data_o [31:0] $end
$upscope $end
$scope module dff2 $end
$var wire 1 $ clk $end
$var wire 1 L hold_flag_i $end
$var wire 1 % rst $end
$var wire 32 W" set_data [31:0] $end
$var wire 32 X" data_i [31:0] $end
$var parameter 32 Y" DW $end
$var reg 32 Z" data_o [31:0] $end
$upscope $end
$upscope $end
$scope module ifetch_inst $end
$var wire 32 [" if2rom_addr_o [31:0] $end
$var wire 32 \" inst_addr_o [31:0] $end
$var wire 32 ]" inst_o [31:0] $end
$var wire 32 ^" rom_inst_i [31:0] $end
$var wire 32 _" pc_addr_i [31:0] $end
$upscope $end
$scope module pc_reg_inst $end
$var wire 1 $ clk $end
$var wire 32 `" jump_addr_i [31:0] $end
$var wire 1 J jump_en_i $end
$var wire 1 % rst $end
$var reg 32 a" pc_o [31:0] $end
$upscope $end
$scope module regs_inst $end
$var wire 1 $ clk $end
$var wire 5 b" reg1_raddr_i [4:0] $end
$var wire 5 c" reg2_raddr_i [4:0] $end
$var wire 5 d" reg_waddr_i [4:0] $end
$var wire 32 e" reg_wdata_i [31:0] $end
$var wire 1 D reg_wen $end
$var wire 1 % rst $end
$var reg 32 f" reg1_rdata_o [31:0] $end
$var reg 32 g" reg2_rdata_o [31:0] $end
$var integer 32 h" i [31:0] $end
$upscope $end
$upscope $end
$scope module rom_inst $end
$var wire 32 i" inst_addr_i [31:0] $end
$var reg 32 j" inst_o [31:0] $end
$upscope $end
$upscope $end
$upscope $end
$enddefinitions $end
$comment Show the parameter values. $end
$dumpall
b100000 Y"
b100000 U"
b100000 8"
b100000 4"
b1 1"
b101 ."
b100000 *"
b100000 &"
b100000 ""
b100000 |
$end
#0
$dumpvars
b110100010011 j"
b0 i"
b100000 h"
b0 g"
b0 f"
b0 e"
b0 d"
b0 c"
b0 b"
b0 a"
b0 `"
b0 _"
b110100010011 ^"
b110100010011 ]"
b0 \"
b0 ["
b0 Z"
b0 X"
b0 W"
b10011 V"
b110100010011 T"
b10011 S"
b0 R"
b0 Q"
b110100010011 P"
b10011 O"
b0 N"
b0 M"
b0 L"
b0 K"
b0 J"
b10011 I"
b0 H"
b0 G"
b0 F"
b0 E"
b0 D"
b0 C"
b0 B"
b10011 A"
b10011 @"
b0 ?"
b0 >"
b0 ="
b0 <"
b0 ;"
b0 :"
b0 9"
b0 7"
b0 6"
b0 5"
b0 3"
b0 2"
00"
b0 /"
b0 -"
b0 ,"
b0 +"
b0 )"
b0 ("
b0 '"
b0 %"
b0 $"
b0 #"
b0 !"
b0 ~
b10011 }
b10011 {
b10011 z
b0 y
b0 x
b0 w
b0 v
b0 u
b0 t
b10011 s
b10011 r
b0 q
b0 p
b0 o
b0 n
b0 m
b0 l
b0 k
b0 j
b0 i
b11111111111111111111111111111111 h
b0 g
b0 f
b0 e
b0 d
b0 c
b0 b
b0 a
b10011 `
b0 _
b0 ^
b0 ]
b0 \
b0 [
1Z
0Y
0X
b10011 W
b0 V
b0 U
b0 T
b0 S
b0 R
b0 Q
b0 P
b0 O
b0 N
b0 M
0L
b0 K
0J
0I
b0 H
0G
b0 F
b0 E
0D
b0 C
b0 B
b0 A
b0 @
b0 ?
b10011 >
b0 =
b0 <
b0 ;
0:
b0 9
b10011 8
b0 7
b0 6
b0 5
14
b0 3
b0 2
b0 1
b10011 0
b0 /
b110100010011 .
b0 -
b110100010011 ,
b0 +
b0 *
b0 )
b0 (
b110100010011 '
bx &
0%
1$
0#
0"
0!
$end
#10
0$
#20
b100000 h"
1$
#30
1%
0$
#40
b11010 5
b11010 m
b11010 -"
b11010 L"
b110110010011 .
b110110010011 P"
b110110010011 T"
b110110010011 ]"
b110110010011 '
b110110010011 ,
b110110010011 ^"
b110110010011 j"
b11010 ?"
b110100010011 8
b110100010011 s
b110100010011 {
b110100010011 I"
1D
b100 /
b100 R"
b100 X"
b100 \"
b100 (
b100 -
b100 ["
b100 i"
b100 +
b100 _"
b100 a"
b110100010011 0
b110100010011 A"
b110100010011 O"
b110100010011 V"
1:
1$
#50
0$
#60
b11011 5
b11011 m
b11011 -"
b11011 L"
b11010 F
b11010 j
b11010 d"
b11010 V
b11011 ?"
b100 9
b100 u
b100 !"
b100 H"
b110110010011 8
b110110010011 s
b110110010011 {
b110110010011 I"
b11111111000000010000000010110111 .
b11111111000000010000000010110111 P"
b11111111000000010000000010110111 T"
b11111111000000010000000010110111 ]"
b11111111000000010000000010110111 '
b11111111000000010000000010110111 ,
b11111111000000010000000010110111 ^"
b11111111000000010000000010110111 j"
b11010 ;
b11010 U
b11010 l
b11010 /"
b110100010011 >
b110100010011 `
b110100010011 r
b110100010011 }
b100 1
b100 B"
b100 Q"
b100 Z"
b110110010011 0
b110110010011 A"
b110110010011 O"
b110110010011 V"
b1000 /
b1000 R"
b1000 X"
b1000 \"
b1000 (
b1000 -
b1000 ["
b1000 i"
b1000 +
b1000 _"
b1000 a"
1$
#70
0$
#80
b1 5
b1 m
b1 -"
b1 L"
b11111111000000010000000000000000 7
b11111111000000010000000000000000 q
b11111111000000010000000000000000 %"
b11111111000000010000000000000000 J"
b11110000000000001000000010010011 .
b11110000000000001000000010010011 P"
b11110000000000001000000010010011 T"
b11110000000000001000000010010011 ]"
b11110000000000001000000010010011 '
b11110000000000001000000010010011 ,
b11110000000000001000000010010011 ^"
b11110000000000001000000010010011 j"
b10000 :"
b1111111 D"
b111111110000 C"
b10000 <"
b10 >"
b1 ?"
b110111 @"
b1000 9
b1000 u
b1000 !"
b1000 H"
b11111111000000010000000010110111 8
b11111111000000010000000010110111 s
b11111111000000010000000010110111 {
b11111111000000010000000010110111 I"
b11011 V
b11011 F
b11011 j
b11011 d"
b1100 /
b1100 R"
b1100 X"
b1100 \"
b1100 (
b1100 -
b1100 ["
b1100 i"
b1100 +
b1100 _"
b1100 a"
b11111111000000010000000010110111 0
b11111111000000010000000010110111 A"
b11111111000000010000000010110111 O"
b11111111000000010000000010110111 V"
b1000 1
b1000 B"
b1000 Q"
b1000 Z"
b110110010011 >
b110110010011 `
b110110010011 r
b110110010011 }
b100 ?
b100 a
b100 t
b100 #"
b11011 ;
b11011 U
b11011 l
b11011 /"
1$
#90
0$
#100
b11111111000000010000000000000000 *
b11111111000000010000000000000000 ="
b11111111000000010000000000000000 f"
b11111111111111111111111100000000 6
b11111111111111111111111100000000 o
b11111111111111111111111100000000 )"
b11111111111111111111111100000000 K"
b1 3
b1 M"
b1 b"
0Z
1Y
b11111111000000010000000000000000 P
b11111111000000010000000000000000 Q
b1 F
b1 j
b1 d"
b11111111000000010000000000000000 E
b11111111000000010000000000000000 k
b11111111000000010000000000000000 e"
b10000 R
b1111111 c
b111111110000 b
b10000 S
b10 T
b1 V
b110111 W
b0 :"
b1111000 D"
b111100000000 C"
b0 <"
b1 >"
b10011 @"
b11111111000000010000000000000000 7
b11111111000000010000000000000000 q
b11111111000000010000000000000000 %"
b11111111000000010000000000000000 J"
b1100 9
b1100 u
b1100 !"
b1100 H"
b11110000000000001000000010010011 8
b11110000000000001000000010010011 s
b11110000000000001000000010010011 {
b11110000000000001000000010010011 I"
b11110000111100001111111100010011 .
b11110000111100001111111100010011 P"
b11110000111100001111111100010011 T"
b11110000111100001111111100010011 ]"
b11110000111100001111111100010011 '
b11110000111100001111111100010011 ,
b11110000111100001111111100010011 ^"
b11110000111100001111111100010011 j"
b1 ;
b1 U
b1 l
b1 /"
b11111111000000010000000000000000 \
b11111111000000010000000000000000 ]
b11111111000000010000000000000000 ^
b11111111000000010000000000000000 =
b11111111000000010000000000000000 _
b11111111000000010000000000000000 p
b11111111000000010000000000000000 '"
b1000 ?
b1000 a
b1000 t
b1000 #"
b11111111000000010000000010110111 >
b11111111000000010000000010110111 `
b11111111000000010000000010110111 r
b11111111000000010000000010110111 }
b1100 1
b1100 B"
b1100 Q"
b1100 Z"
b11110000000000001000000010010011 0
b11110000000000001000000010010011 A"
b11110000000000001000000010010011 O"
b11110000000000001000000010010011 V"
b10000 /
b10000 R"
b10000 X"
b10000 \"
b10000 (
b10000 -
b10000 ["
b10000 i"
b10000 +
b10000 _"
b10000 a"
1$
#110
0$
#120
b11111111000000001111111100000000 7
b11111111000000001111111100000000 q
b11111111000000001111111100000000 %"
b11111111000000001111111100000000 J"
b11111111000000001111111100000000 *
b11111111000000001111111100000000 ="
b11111111000000001111111100000000 f"
b11110 5
b11110 m
b11110 -"
b11110 L"
b11111111111111111111111100001111 6
b11111111111111111111111100001111 o
b11111111111111111111111100001111 )"
b11111111111111111111111100001111 K"
b11111111000000001111111100000000 E
b11111111000000001111111100000000 k
b11111111000000001111111100000000 e"
b11111111000000010000111010110111 .
b11111111000000010000111010110111 P"
b11111111000000010000111010110111 T"
b11111111000000010000111010110111 ]"
b11111111000000010000111010110111 '
b11111111000000010000111010110111 ,
b11111111000000010000111010110111 ^"
b11111111000000010000111010110111 j"
b1111 :"
b111100001111 C"
b1111 <"
b111 E"
b11110 ?"
b10000 9
b10000 u
b10000 !"
b10000 H"
b11110000111100001111111100010011 8
b11110000111100001111111100010011 s
b11110000111100001111111100010011 {
b11110000111100001111111100010011 I"
b0 R
b1111000 c
b111100000000 b
b0 S
b1 T
b10011 W
1X
b11111111111111111111111100000000 P
b111111101111111100000000 Q
b11111111000000010000000000000000 O
b10100 /
b10100 R"
b10100 X"
b10100 \"
b10100 (
b10100 -
b10100 ["
b10100 i"
b10100 +
b10100 _"
b10100 a"
b11110000111100001111111100010011 0
b11110000111100001111111100010011 A"
b11110000111100001111111100010011 O"
b11110000111100001111111100010011 V"
b10000 1
b10000 B"
b10000 Q"
b10000 Z"
b11110000000000001000000010010011 >
b11110000000000001000000010010011 `
b11110000000000001000000010010011 r
b11110000000000001000000010010011 }
b1100 ?
b1100 a
b1100 t
b1100 #"
b0 \
b0 ]
b11111111000000001111111100000000 ^
b11111111111111111111111100000000 <
b11111111111111111111111100000000 [
b11111111111111111111111100000000 n
b11111111111111111111111100000000 +"
1$
#130
0$
#140
b0 *
b0 ="
b0 f"
b11101 5
b11101 m
b11101 -"
b11101 L"
b0 6
b0 o
b0 )"
b0 K"
b11111111000000010000000000000000 7
b11111111000000010000000000000000 q
b11111111000000010000000000000000 %"
b11111111000000010000000000000000 J"
b0 3
b0 M"
b0 b"
b11111111111111111 h
b11111111111111111111111100001111 P
b111111110000000000001111 Q
b11111111000000001111111100000000 O
b11110 F
b11110 j
b11110 d"
b11111111000000001111111100000000 E
b11111111000000001111111100000000 k
b11111111000000001111111100000000 e"
b1111 R
b111100001111 b
b1111 S
b111 d
b11110 V
b10000 :"
b1111111 D"
b111111110000 C"
b10000 <"
b10 >"
b0 E"
b11101 ?"
b110111 @"
b10100 9
b10100 u
b10100 !"
b10100 H"
b11111111000000010000111010110111 8
b11111111000000010000111010110111 s
b11111111000000010000111010110111 {
b11111111000000010000111010110111 I"
b11110000000011101000111010010011 .
b11110000000011101000111010010011 P"
b11110000000011101000111010010011 T"
b11110000000011101000111010010011 ]"
b11110000000011101000111010010011 '
b11110000000011101000111010010011 ,
b11110000000011101000111010010011 ^"
b11110000000011101000111010010011 j"
b11110 ;
b11110 U
b11110 l
b11110 /"
b11111111111111111111111100001111 <
b11111111111111111111111100001111 [
b11111111111111111111111100001111 n
b11111111111111111111111100001111 +"
b11111111000000001111111000001111 ^
b11111111000000001111111100000000 =
b11111111000000001111111100000000 _
b11111111000000001111111100000000 p
b11111111000000001111111100000000 '"
b10000 ?
b10000 a
b10000 t
b10000 #"
b11110000111100001111111100010011 >
b11110000111100001111111100010011 `
b11110000111100001111111100010011 r
b11110000111100001111111100010011 }
b10100 1
b10100 B"
b10100 Q"
b10100 Z"
b11111111000000010000111010110111 0
b11111111000000010000111010110111 A"
b11111111000000010000111010110111 O"
b11111111000000010000111010110111 V"
b11000 /
b11000 R"
b11000 X"
b11000 \"
b11000 (
b11000 -
b11000 ["
b11000 i"
b11000 +
b11000 _"
b11000 a"
1$
#150
0$
#160
b11111111000000010000000000000000 *
b11111111000000010000000000000000 ="
b11111111000000010000000000000000 f"
b11111111111111111111111100000000 6
b11111111111111111111111100000000 o
b11111111111111111111111100000000 )"
b11111111111111111111111100000000 K"
b11101 3
b11101 M"
b11101 b"
b11111111000000010000000000000000 E
b11111111000000010000000000000000 k
b11111111000000010000000000000000 e"
b1000000000000110010011 .
b1000000000000110010011 P"
b1000000000000110010011 T"
b1000000000000110010011 ]"
b1000000000000110010011 '
b1000000000000110010011 ,
b1000000000000110010011 ^"
b1000000000000110010011 j"
b0 :"
b1111000 D"
b111100000000 C"
b0 <"
b11101 >"
b10011 @"
b11111111000000010000000000000000 7
b11111111000000010000000000000000 q
b11111111000000010000000000000000 %"
b11111111000000010000000000000000 J"
b11000 9
b11000 u
b11000 !"
b11000 H"
b11110000000011101000111010010011 8
b11110000000011101000111010010011 s
b11110000000011101000111010010011 {
b11110000000011101000111010010011 I"
b10000 R
b1111111 c
b111111110000 b
b10000 S
b10 T
b0 d
b11101 V
b110111 W
b11111111111111111111111111111111 h
0X
b11111111000000010000000000000000 P
b11111111000000010000000000000000 Q
b0 O
b11101 F
b11101 j
b11101 d"
b11100 /
b11100 R"
b11100 X"
b11100 \"
b11100 (
b11100 -
b11100 ["
b11100 i"
b11100 +
b11100 _"
b11100 a"
b11110000000011101000111010010011 0
b11110000000011101000111010010011 A"
b11110000000011101000111010010011 O"
b11110000000011101000111010010011 V"
b11000 1
b11000 B"
b11000 Q"
b11000 Z"
b11111111000000010000111010110111 >
b11111111000000010000111010110111 `
b11111111000000010000111010110111 r
b11111111000000010000111010110111 }
b10100 ?
b10100 a
b10100 t
b10100 #"
b11111111000000010000000000000000 =
b11111111000000010000000000000000 _
b11111111000000010000000000000000 p
b11111111000000010000000000000000 '"
b11111111000000010000000000000000 \
b11111111000000010000000000000000 ]
b11111111000000010000000000000000 ^
b0 <
b0 [
b0 n
b0 +"
b11101 ;
b11101 U
b11101 l
b11101 /"
1$
#170
0$
#180
b0 7
b0 q
b0 %"
b0 J"
b0 *
b0 ="
b0 f"
b11 5
b11 m
b11 -"
b11 L"
b10 6
b10 o
b10 )"
b10 K"
b0 3
b0 M"
b0 b"
1X
b11111111111111111111111100000000 P
b111111101111111100000000 Q
b11111111000000010000000000000000 O
b11111111000000001111111100000000 E
b11111111000000001111111100000000 k
b11111111000000001111111100000000 e"
b0 R
b1111000 c
b111100000000 b
b0 S
b11101 T
b10011 W
b10 :"
b0 D"
b10 C"
b10 <"
b0 >"
b11 ?"
b11100 9
b11100 u
b11100 !"
b11100 H"
b1000000000000110010011 8
b1000000000000110010011 s
b1000000000000110010011 {
b1000000000000110010011 I"
b11011110111110001010001100011 .
b11011110111110001010001100011 P"
b11011110111110001010001100011 T"
b11011110111110001010001100011 ]"
b11011110111110001010001100011 '
b11011110111110001010001100011 ,
b11011110111110001010001100011 ^"
b11011110111110001010001100011 j"
b0 \
b0 ]
b11111111000000001111111100000000 ^
b11111111111111111111111100000000 <
b11111111111111111111111100000000 [
b11111111111111111111111100000000 n
b11111111111111111111111100000000 +"
b11000 ?
b11000 a
b11000 t
b11000 #"
b11110000000011101000111010010011 >
b11110000000011101000111010010011 `
b11110000000011101000111010010011 r
b11110000000011101000111010010011 }
b11100 1
b11100 B"
b11100 Q"
b11100 Z"
b1000000000000110010011 0
b1000000000000110010011 A"
b1000000000000110010011 O"
b1000000000000110010011 V"
b100000 /
b100000 R"
b100000 X"
b100000 \"
b100000 (
b100000 -
b100000 ["
b100000 i"
b100000 +
b100000 _"
b100000 a"
1$
#190
0$
#200
b11111111000000001111111100000000 7
b11111111000000001111111100000000 q
b11111111000000001111111100000000 %"
b11111111000000001111111100000000 J"
b11111111000000001111111100000000 )
b11111111000000001111111100000000 ;"
b11111111000000001111111100000000 g"
b11111111000000001111111100000000 *
b11111111000000001111111100000000 ="
b11111111000000001111111100000000 f"
b110101000 C
b110101000 y
b110101000 7"
b110101000 F"
b100000 B
b100000 w
b100000 3"
b100000 G"
04
b0 5
b0 m
b0 -"
b0 L"
b11111111000000001111111100000000 6
b11111111000000001111111100000000 o
b11111111000000001111111100000000 )"
b11111111000000001111111100000000 K"
b11101 2
b11101 N"
b11101 c"
b11110 3
b11110 M"
b11110 b"
b1111111100000001000010110111 .
b1111111100000001000010110111 P"
b1111111100000001000010110111 T"
b1111111100000001000010110111 ]"
b1111111100000001000010110111 '
b1111111100000001000010110111 ,
b1111111100000001000010110111 ^"
b1111111100000001000010110111 j"
b11101 :"
b1101 D"
b110111101 C"
b11101 <"
b11110 >"
b1 E"
b1000 ?"
b1100011 @"
b100000 9
b100000 u
b100000 !"
b100000 H"
b11011110111110001010001100011 8
b11011110111110001010001100011 s
b11011110111110001010001100011 {
b11011110111110001010001100011 I"
b10 R
b0 c
b10 b
b10 S
b0 T
b11 V
b111111111111111111111111111111 h
b10 P
b10 Q
b0 O
b11 F
b11 j
b11 d"
b10 E
b10 k
b10 e"
b100100 /
b100100 R"
b100100 X"
b100100 \"
b100100 (
b100100 -
b100100 ["
b100100 i"
b100100 +
b100100 _"
b100100 a"
b11011110111110001010001100011 0
b11011110111110001010001100011 A"
b11011110111110001010001100011 O"
b11011110111110001010001100011 V"
b100000 1
b100000 B"
b100000 Q"
b100000 Z"
b1000000000000110010011 >
b1000000000000110010011 `
b1000000000000110010011 r
b1000000000000110010011 }
b11100 ?
b11100 a
b11100 t
b11100 #"
b0 =
b0 _
b0 p
b0 '"
b0 \
b0 ]
b10 ^
b10 <
b10 [
b10 n
b10 +"
b11 ;
b11 U
b11 l
b11 /"
1$
#210
0$
#220
b0 )
b0 ;"
b0 g"
b0 *
b0 ="
b0 f"
0L
0J
b111001000 K
b111001000 N
b111001000 `"
14
b1 5
b1 m
b1 -"
b1 L"
b0 6
b0 o
b0 )"
b0 K"
b1111111100000001000000000000 7
b1111111100000001000000000000 q
b1111111100000001000000000000 %"
b1111111100000001000000000000 J"
b0 2
b0 N"
b0 c"
b0 3
b0 M"
b0 b"
b11111111111111111111111111111111 h
1Z
0Y
0X
b11111111000000001111111100000000 P
b0 Q
b11111111000000001111111100000000 O
0G
b111001000 H
b111001000 M
b111001000 i
0D
b0 F
b0 j
b0 d"
b0 E
b0 k
b0 e"
b11101 R
b1101 c
b110111101 b
b11101 S
b11110 T
b1 d
b1000 V
b1100011 W
b11111 :"
b111 D"
b11111111 C"
b11111 <"
b0 >"
b1 ?"
b110111 @"
b0 C
b0 y
b0 7"
b0 F"
b0 B
b0 w
b0 3"
b0 G"
b100100 9
b100100 u
b100100 !"
b100100 H"
b1111111100000001000010110111 8
b1111111100000001000010110111 s
b1111111100000001000010110111 {
b1111111100000001000010110111 I"
b11111111000000001000000010010011 .
b11111111000000001000000010010011 P"
b11111111000000001000000010010011 T"
b11111111000000001000000010010011 ]"
b11111111000000001000000010010011 '
b11111111000000001000000010010011 ,
b11111111000000001000000010010011 ^"
b11111111000000001000000010010011 j"
b110101000 A
b110101000 g
b110101000 x
b110101000 9"
b111001000 f
b100000 @
b100000 e
b100000 v
b100000 5"
0:
b0 ;
b0 U
b0 l
b0 /"
b11111111000000001111111100000000 <
b11111111000000001111111100000000 [
b11111111000000001111111100000000 n
b11111111000000001111111100000000 +"
b0 \
b0 ]
b11111110000000011111111000000000 ^
b11111111000000001111111100000000 =
b11111111000000001111111100000000 _
b11111111000000001111111100000000 p
b11111111000000001111111100000000 '"
b100000 ?
b100000 a
b100000 t
b100000 #"
b11011110111110001010001100011 >
b11011110111110001010001100011 `
b11011110111110001010001100011 r
b11011110111110001010001100011 }
b100100 1
b100100 B"
b100100 Q"
b100100 Z"
b1111111100000001000010110111 0
b1111111100000001000010110111 A"
b1111111100000001000010110111 O"
b1111111100000001000010110111 V"
b101000 /
b101000 R"
b101000 X"
b101000 \"
b101000 (
b101000 -
b101000 ["
b101000 i"
b101000 +
b101000 _"
b101000 a"
1$
#230
0$
